(kicad_sch
	(version 20231120)
	(generator "eeschema")
	(generator_version "8.0")
	(uuid "0a5ada68-ef1f-4f95-8212-cf053d8f9906")
	(paper "A4")
	(title_block
		(title "ZMK Sculpt")
		(date "2025-01-03")
		(rev "R2")
		(company "Petr Hodina")
	)
	(lib_symbols
		(symbol "Connector:Conn_01x30_Pin"
			(pin_names
				(offset 1.016) hide)
			(exclude_from_sim no)
			(in_bom yes)
			(on_board yes)
			(property "Reference" "J"
				(at 0 38.1 0)
				(effects
					(font
						(size 1.27 1.27)
					)
				)
			)
			(property "Value" "Conn_01x30_Pin"
				(at 0 -40.64 0)
				(effects
					(font
						(size 1.27 1.27)
					)
				)
			)
			(property "Footprint" ""
				(at 0 0 0)
				(effects
					(font
						(size 1.27 1.27)
					)
					(hide yes)
				)
			)
			(property "Datasheet" "~"
				(at 0 0 0)
				(effects
					(font
						(size 1.27 1.27)
					)
					(hide yes)
				)
			)
			(property "Description" "Generic connector, single row, 01x30, script generated"
				(at 0 0 0)
				(effects
					(font
						(size 1.27 1.27)
					)
					(hide yes)
				)
			)
			(property "ki_locked" ""
				(at 0 0 0)
				(effects
					(font
						(size 1.27 1.27)
					)
				)
			)
			(property "ki_keywords" "connector"
				(at 0 0 0)
				(effects
					(font
						(size 1.27 1.27)
					)
					(hide yes)
				)
			)
			(property "ki_fp_filters" "Connector*:*_1x??_*"
				(at 0 0 0)
				(effects
					(font
						(size 1.27 1.27)
					)
					(hide yes)
				)
			)
			(symbol "Conn_01x30_Pin_1_1"
				(polyline
					(pts
						(xy 1.27 -38.1) (xy 0.8636 -38.1)
					)
					(stroke
						(width 0.1524)
						(type default)
					)
					(fill
						(type none)
					)
				)
				(polyline
					(pts
						(xy 1.27 -35.56) (xy 0.8636 -35.56)
					)
					(stroke
						(width 0.1524)
						(type default)
					)
					(fill
						(type none)
					)
				)
				(polyline
					(pts
						(xy 1.27 -33.02) (xy 0.8636 -33.02)
					)
					(stroke
						(width 0.1524)
						(type default)
					)
					(fill
						(type none)
					)
				)
				(polyline
					(pts
						(xy 1.27 -30.48) (xy 0.8636 -30.48)
					)
					(stroke
						(width 0.1524)
						(type default)
					)
					(fill
						(type none)
					)
				)
				(polyline
					(pts
						(xy 1.27 -27.94) (xy 0.8636 -27.94)
					)
					(stroke
						(width 0.1524)
						(type default)
					)
					(fill
						(type none)
					)
				)
				(polyline
					(pts
						(xy 1.27 -25.4) (xy 0.8636 -25.4)
					)
					(stroke
						(width 0.1524)
						(type default)
					)
					(fill
						(type none)
					)
				)
				(polyline
					(pts
						(xy 1.27 -22.86) (xy 0.8636 -22.86)
					)
					(stroke
						(width 0.1524)
						(type default)
					)
					(fill
						(type none)
					)
				)
				(polyline
					(pts
						(xy 1.27 -20.32) (xy 0.8636 -20.32)
					)
					(stroke
						(width 0.1524)
						(type default)
					)
					(fill
						(type none)
					)
				)
				(polyline
					(pts
						(xy 1.27 -17.78) (xy 0.8636 -17.78)
					)
					(stroke
						(width 0.1524)
						(type default)
					)
					(fill
						(type none)
					)
				)
				(polyline
					(pts
						(xy 1.27 -15.24) (xy 0.8636 -15.24)
					)
					(stroke
						(width 0.1524)
						(type default)
					)
					(fill
						(type none)
					)
				)
				(polyline
					(pts
						(xy 1.27 -12.7) (xy 0.8636 -12.7)
					)
					(stroke
						(width 0.1524)
						(type default)
					)
					(fill
						(type none)
					)
				)
				(polyline
					(pts
						(xy 1.27 -10.16) (xy 0.8636 -10.16)
					)
					(stroke
						(width 0.1524)
						(type default)
					)
					(fill
						(type none)
					)
				)
				(polyline
					(pts
						(xy 1.27 -7.62) (xy 0.8636 -7.62)
					)
					(stroke
						(width 0.1524)
						(type default)
					)
					(fill
						(type none)
					)
				)
				(polyline
					(pts
						(xy 1.27 -5.08) (xy 0.8636 -5.08)
					)
					(stroke
						(width 0.1524)
						(type default)
					)
					(fill
						(type none)
					)
				)
				(polyline
					(pts
						(xy 1.27 -2.54) (xy 0.8636 -2.54)
					)
					(stroke
						(width 0.1524)
						(type default)
					)
					(fill
						(type none)
					)
				)
				(polyline
					(pts
						(xy 1.27 0) (xy 0.8636 0)
					)
					(stroke
						(width 0.1524)
						(type default)
					)
					(fill
						(type none)
					)
				)
				(polyline
					(pts
						(xy 1.27 2.54) (xy 0.8636 2.54)
					)
					(stroke
						(width 0.1524)
						(type default)
					)
					(fill
						(type none)
					)
				)
				(polyline
					(pts
						(xy 1.27 5.08) (xy 0.8636 5.08)
					)
					(stroke
						(width 0.1524)
						(type default)
					)
					(fill
						(type none)
					)
				)
				(polyline
					(pts
						(xy 1.27 7.62) (xy 0.8636 7.62)
					)
					(stroke
						(width 0.1524)
						(type default)
					)
					(fill
						(type none)
					)
				)
				(polyline
					(pts
						(xy 1.27 10.16) (xy 0.8636 10.16)
					)
					(stroke
						(width 0.1524)
						(type default)
					)
					(fill
						(type none)
					)
				)
				(polyline
					(pts
						(xy 1.27 12.7) (xy 0.8636 12.7)
					)
					(stroke
						(width 0.1524)
						(type default)
					)
					(fill
						(type none)
					)
				)
				(polyline
					(pts
						(xy 1.27 15.24) (xy 0.8636 15.24)
					)
					(stroke
						(width 0.1524)
						(type default)
					)
					(fill
						(type none)
					)
				)
				(polyline
					(pts
						(xy 1.27 17.78) (xy 0.8636 17.78)
					)
					(stroke
						(width 0.1524)
						(type default)
					)
					(fill
						(type none)
					)
				)
				(polyline
					(pts
						(xy 1.27 20.32) (xy 0.8636 20.32)
					)
					(stroke
						(width 0.1524)
						(type default)
					)
					(fill
						(type none)
					)
				)
				(polyline
					(pts
						(xy 1.27 22.86) (xy 0.8636 22.86)
					)
					(stroke
						(width 0.1524)
						(type default)
					)
					(fill
						(type none)
					)
				)
				(polyline
					(pts
						(xy 1.27 25.4) (xy 0.8636 25.4)
					)
					(stroke
						(width 0.1524)
						(type default)
					)
					(fill
						(type none)
					)
				)
				(polyline
					(pts
						(xy 1.27 27.94) (xy 0.8636 27.94)
					)
					(stroke
						(width 0.1524)
						(type default)
					)
					(fill
						(type none)
					)
				)
				(polyline
					(pts
						(xy 1.27 30.48) (xy 0.8636 30.48)
					)
					(stroke
						(width 0.1524)
						(type default)
					)
					(fill
						(type none)
					)
				)
				(polyline
					(pts
						(xy 1.27 33.02) (xy 0.8636 33.02)
					)
					(stroke
						(width 0.1524)
						(type default)
					)
					(fill
						(type none)
					)
				)
				(polyline
					(pts
						(xy 1.27 35.56) (xy 0.8636 35.56)
					)
					(stroke
						(width 0.1524)
						(type default)
					)
					(fill
						(type none)
					)
				)
				(rectangle
					(start 0.8636 -37.973)
					(end 0 -38.227)
					(stroke
						(width 0.1524)
						(type default)
					)
					(fill
						(type outline)
					)
				)
				(rectangle
					(start 0.8636 -35.433)
					(end 0 -35.687)
					(stroke
						(width 0.1524)
						(type default)
					)
					(fill
						(type outline)
					)
				)
				(rectangle
					(start 0.8636 -32.893)
					(end 0 -33.147)
					(stroke
						(width 0.1524)
						(type default)
					)
					(fill
						(type outline)
					)
				)
				(rectangle
					(start 0.8636 -30.353)
					(end 0 -30.607)
					(stroke
						(width 0.1524)
						(type default)
					)
					(fill
						(type outline)
					)
				)
				(rectangle
					(start 0.8636 -27.813)
					(end 0 -28.067)
					(stroke
						(width 0.1524)
						(type default)
					)
					(fill
						(type outline)
					)
				)
				(rectangle
					(start 0.8636 -25.273)
					(end 0 -25.527)
					(stroke
						(width 0.1524)
						(type default)
					)
					(fill
						(type outline)
					)
				)
				(rectangle
					(start 0.8636 -22.733)
					(end 0 -22.987)
					(stroke
						(width 0.1524)
						(type default)
					)
					(fill
						(type outline)
					)
				)
				(rectangle
					(start 0.8636 -20.193)
					(end 0 -20.447)
					(stroke
						(width 0.1524)
						(type default)
					)
					(fill
						(type outline)
					)
				)
				(rectangle
					(start 0.8636 -17.653)
					(end 0 -17.907)
					(stroke
						(width 0.1524)
						(type default)
					)
					(fill
						(type outline)
					)
				)
				(rectangle
					(start 0.8636 -15.113)
					(end 0 -15.367)
					(stroke
						(width 0.1524)
						(type default)
					)
					(fill
						(type outline)
					)
				)
				(rectangle
					(start 0.8636 -12.573)
					(end 0 -12.827)
					(stroke
						(width 0.1524)
						(type default)
					)
					(fill
						(type outline)
					)
				)
				(rectangle
					(start 0.8636 -10.033)
					(end 0 -10.287)
					(stroke
						(width 0.1524)
						(type default)
					)
					(fill
						(type outline)
					)
				)
				(rectangle
					(start 0.8636 -7.493)
					(end 0 -7.747)
					(stroke
						(width 0.1524)
						(type default)
					)
					(fill
						(type outline)
					)
				)
				(rectangle
					(start 0.8636 -4.953)
					(end 0 -5.207)
					(stroke
						(width 0.1524)
						(type default)
					)
					(fill
						(type outline)
					)
				)
				(rectangle
					(start 0.8636 -2.413)
					(end 0 -2.667)
					(stroke
						(width 0.1524)
						(type default)
					)
					(fill
						(type outline)
					)
				)
				(rectangle
					(start 0.8636 0.127)
					(end 0 -0.127)
					(stroke
						(width 0.1524)
						(type default)
					)
					(fill
						(type outline)
					)
				)
				(rectangle
					(start 0.8636 2.667)
					(end 0 2.413)
					(stroke
						(width 0.1524)
						(type default)
					)
					(fill
						(type outline)
					)
				)
				(rectangle
					(start 0.8636 5.207)
					(end 0 4.953)
					(stroke
						(width 0.1524)
						(type default)
					)
					(fill
						(type outline)
					)
				)
				(rectangle
					(start 0.8636 7.747)
					(end 0 7.493)
					(stroke
						(width 0.1524)
						(type default)
					)
					(fill
						(type outline)
					)
				)
				(rectangle
					(start 0.8636 10.287)
					(end 0 10.033)
					(stroke
						(width 0.1524)
						(type default)
					)
					(fill
						(type outline)
					)
				)
				(rectangle
					(start 0.8636 12.827)
					(end 0 12.573)
					(stroke
						(width 0.1524)
						(type default)
					)
					(fill
						(type outline)
					)
				)
				(rectangle
					(start 0.8636 15.367)
					(end 0 15.113)
					(stroke
						(width 0.1524)
						(type default)
					)
					(fill
						(type outline)
					)
				)
				(rectangle
					(start 0.8636 17.907)
					(end 0 17.653)
					(stroke
						(width 0.1524)
						(type default)
					)
					(fill
						(type outline)
					)
				)
				(rectangle
					(start 0.8636 20.447)
					(end 0 20.193)
					(stroke
						(width 0.1524)
						(type default)
					)
					(fill
						(type outline)
					)
				)
				(rectangle
					(start 0.8636 22.987)
					(end 0 22.733)
					(stroke
						(width 0.1524)
						(type default)
					)
					(fill
						(type outline)
					)
				)
				(rectangle
					(start 0.8636 25.527)
					(end 0 25.273)
					(stroke
						(width 0.1524)
						(type default)
					)
					(fill
						(type outline)
					)
				)
				(rectangle
					(start 0.8636 28.067)
					(end 0 27.813)
					(stroke
						(width 0.1524)
						(type default)
					)
					(fill
						(type outline)
					)
				)
				(rectangle
					(start 0.8636 30.607)
					(end 0 30.353)
					(stroke
						(width 0.1524)
						(type default)
					)
					(fill
						(type outline)
					)
				)
				(rectangle
					(start 0.8636 33.147)
					(end 0 32.893)
					(stroke
						(width 0.1524)
						(type default)
					)
					(fill
						(type outline)
					)
				)
				(rectangle
					(start 0.8636 35.687)
					(end 0 35.433)
					(stroke
						(width 0.1524)
						(type default)
					)
					(fill
						(type outline)
					)
				)
				(pin passive line
					(at 5.08 35.56 180)
					(length 3.81)
					(name "Pin_1"
						(effects
							(font
								(size 1.27 1.27)
							)
						)
					)
					(number "1"
						(effects
							(font
								(size 1.27 1.27)
							)
						)
					)
				)
				(pin passive line
					(at 5.08 12.7 180)
					(length 3.81)
					(name "Pin_10"
						(effects
							(font
								(size 1.27 1.27)
							)
						)
					)
					(number "10"
						(effects
							(font
								(size 1.27 1.27)
							)
						)
					)
				)
				(pin passive line
					(at 5.08 10.16 180)
					(length 3.81)
					(name "Pin_11"
						(effects
							(font
								(size 1.27 1.27)
							)
						)
					)
					(number "11"
						(effects
							(font
								(size 1.27 1.27)
							)
						)
					)
				)
				(pin passive line
					(at 5.08 7.62 180)
					(length 3.81)
					(name "Pin_12"
						(effects
							(font
								(size 1.27 1.27)
							)
						)
					)
					(number "12"
						(effects
							(font
								(size 1.27 1.27)
							)
						)
					)
				)
				(pin passive line
					(at 5.08 5.08 180)
					(length 3.81)
					(name "Pin_13"
						(effects
							(font
								(size 1.27 1.27)
							)
						)
					)
					(number "13"
						(effects
							(font
								(size 1.27 1.27)
							)
						)
					)
				)
				(pin passive line
					(at 5.08 2.54 180)
					(length 3.81)
					(name "Pin_14"
						(effects
							(font
								(size 1.27 1.27)
							)
						)
					)
					(number "14"
						(effects
							(font
								(size 1.27 1.27)
							)
						)
					)
				)
				(pin passive line
					(at 5.08 0 180)
					(length 3.81)
					(name "Pin_15"
						(effects
							(font
								(size 1.27 1.27)
							)
						)
					)
					(number "15"
						(effects
							(font
								(size 1.27 1.27)
							)
						)
					)
				)
				(pin passive line
					(at 5.08 -2.54 180)
					(length 3.81)
					(name "Pin_16"
						(effects
							(font
								(size 1.27 1.27)
							)
						)
					)
					(number "16"
						(effects
							(font
								(size 1.27 1.27)
							)
						)
					)
				)
				(pin passive line
					(at 5.08 -5.08 180)
					(length 3.81)
					(name "Pin_17"
						(effects
							(font
								(size 1.27 1.27)
							)
						)
					)
					(number "17"
						(effects
							(font
								(size 1.27 1.27)
							)
						)
					)
				)
				(pin passive line
					(at 5.08 -7.62 180)
					(length 3.81)
					(name "Pin_18"
						(effects
							(font
								(size 1.27 1.27)
							)
						)
					)
					(number "18"
						(effects
							(font
								(size 1.27 1.27)
							)
						)
					)
				)
				(pin passive line
					(at 5.08 -10.16 180)
					(length 3.81)
					(name "Pin_19"
						(effects
							(font
								(size 1.27 1.27)
							)
						)
					)
					(number "19"
						(effects
							(font
								(size 1.27 1.27)
							)
						)
					)
				)
				(pin passive line
					(at 5.08 33.02 180)
					(length 3.81)
					(name "Pin_2"
						(effects
							(font
								(size 1.27 1.27)
							)
						)
					)
					(number "2"
						(effects
							(font
								(size 1.27 1.27)
							)
						)
					)
				)
				(pin passive line
					(at 5.08 -12.7 180)
					(length 3.81)
					(name "Pin_20"
						(effects
							(font
								(size 1.27 1.27)
							)
						)
					)
					(number "20"
						(effects
							(font
								(size 1.27 1.27)
							)
						)
					)
				)
				(pin passive line
					(at 5.08 -15.24 180)
					(length 3.81)
					(name "Pin_21"
						(effects
							(font
								(size 1.27 1.27)
							)
						)
					)
					(number "21"
						(effects
							(font
								(size 1.27 1.27)
							)
						)
					)
				)
				(pin passive line
					(at 5.08 -17.78 180)
					(length 3.81)
					(name "Pin_22"
						(effects
							(font
								(size 1.27 1.27)
							)
						)
					)
					(number "22"
						(effects
							(font
								(size 1.27 1.27)
							)
						)
					)
				)
				(pin passive line
					(at 5.08 -20.32 180)
					(length 3.81)
					(name "Pin_23"
						(effects
							(font
								(size 1.27 1.27)
							)
						)
					)
					(number "23"
						(effects
							(font
								(size 1.27 1.27)
							)
						)
					)
				)
				(pin passive line
					(at 5.08 -22.86 180)
					(length 3.81)
					(name "Pin_24"
						(effects
							(font
								(size 1.27 1.27)
							)
						)
					)
					(number "24"
						(effects
							(font
								(size 1.27 1.27)
							)
						)
					)
				)
				(pin passive line
					(at 5.08 -25.4 180)
					(length 3.81)
					(name "Pin_25"
						(effects
							(font
								(size 1.27 1.27)
							)
						)
					)
					(number "25"
						(effects
							(font
								(size 1.27 1.27)
							)
						)
					)
				)
				(pin passive line
					(at 5.08 -27.94 180)
					(length 3.81)
					(name "Pin_26"
						(effects
							(font
								(size 1.27 1.27)
							)
						)
					)
					(number "26"
						(effects
							(font
								(size 1.27 1.27)
							)
						)
					)
				)
				(pin passive line
					(at 5.08 -30.48 180)
					(length 3.81)
					(name "Pin_27"
						(effects
							(font
								(size 1.27 1.27)
							)
						)
					)
					(number "27"
						(effects
							(font
								(size 1.27 1.27)
							)
						)
					)
				)
				(pin passive line
					(at 5.08 -33.02 180)
					(length 3.81)
					(name "Pin_28"
						(effects
							(font
								(size 1.27 1.27)
							)
						)
					)
					(number "28"
						(effects
							(font
								(size 1.27 1.27)
							)
						)
					)
				)
				(pin passive line
					(at 5.08 -35.56 180)
					(length 3.81)
					(name "Pin_29"
						(effects
							(font
								(size 1.27 1.27)
							)
						)
					)
					(number "29"
						(effects
							(font
								(size 1.27 1.27)
							)
						)
					)
				)
				(pin passive line
					(at 5.08 30.48 180)
					(length 3.81)
					(name "Pin_3"
						(effects
							(font
								(size 1.27 1.27)
							)
						)
					)
					(number "3"
						(effects
							(font
								(size 1.27 1.27)
							)
						)
					)
				)
				(pin passive line
					(at 5.08 -38.1 180)
					(length 3.81)
					(name "Pin_30"
						(effects
							(font
								(size 1.27 1.27)
							)
						)
					)
					(number "30"
						(effects
							(font
								(size 1.27 1.27)
							)
						)
					)
				)
				(pin passive line
					(at 5.08 27.94 180)
					(length 3.81)
					(name "Pin_4"
						(effects
							(font
								(size 1.27 1.27)
							)
						)
					)
					(number "4"
						(effects
							(font
								(size 1.27 1.27)
							)
						)
					)
				)
				(pin passive line
					(at 5.08 25.4 180)
					(length 3.81)
					(name "Pin_5"
						(effects
							(font
								(size 1.27 1.27)
							)
						)
					)
					(number "5"
						(effects
							(font
								(size 1.27 1.27)
							)
						)
					)
				)
				(pin passive line
					(at 5.08 22.86 180)
					(length 3.81)
					(name "Pin_6"
						(effects
							(font
								(size 1.27 1.27)
							)
						)
					)
					(number "6"
						(effects
							(font
								(size 1.27 1.27)
							)
						)
					)
				)
				(pin passive line
					(at 5.08 20.32 180)
					(length 3.81)
					(name "Pin_7"
						(effects
							(font
								(size 1.27 1.27)
							)
						)
					)
					(number "7"
						(effects
							(font
								(size 1.27 1.27)
							)
						)
					)
				)
				(pin passive line
					(at 5.08 17.78 180)
					(length 3.81)
					(name "Pin_8"
						(effects
							(font
								(size 1.27 1.27)
							)
						)
					)
					(number "8"
						(effects
							(font
								(size 1.27 1.27)
							)
						)
					)
				)
				(pin passive line
					(at 5.08 15.24 180)
					(length 3.81)
					(name "Pin_9"
						(effects
							(font
								(size 1.27 1.27)
							)
						)
					)
					(number "9"
						(effects
							(font
								(size 1.27 1.27)
							)
						)
					)
				)
			)
		)
		(symbol "Connector:TestPoint"
			(pin_numbers hide)
			(pin_names
				(offset 0.762) hide)
			(exclude_from_sim no)
			(in_bom yes)
			(on_board yes)
			(property "Reference" "TP"
				(at 0 6.858 0)
				(effects
					(font
						(size 1.27 1.27)
					)
				)
			)
			(property "Value" "TestPoint"
				(at 0 5.08 0)
				(effects
					(font
						(size 1.27 1.27)
					)
				)
			)
			(property "Footprint" ""
				(at 5.08 0 0)
				(effects
					(font
						(size 1.27 1.27)
					)
					(hide yes)
				)
			)
			(property "Datasheet" "~"
				(at 5.08 0 0)
				(effects
					(font
						(size 1.27 1.27)
					)
					(hide yes)
				)
			)
			(property "Description" "test point"
				(at 0 0 0)
				(effects
					(font
						(size 1.27 1.27)
					)
					(hide yes)
				)
			)
			(property "ki_keywords" "test point tp"
				(at 0 0 0)
				(effects
					(font
						(size 1.27 1.27)
					)
					(hide yes)
				)
			)
			(property "ki_fp_filters" "Pin* Test*"
				(at 0 0 0)
				(effects
					(font
						(size 1.27 1.27)
					)
					(hide yes)
				)
			)
			(symbol "TestPoint_0_1"
				(circle
					(center 0 3.302)
					(radius 0.762)
					(stroke
						(width 0)
						(type default)
					)
					(fill
						(type none)
					)
				)
			)
			(symbol "TestPoint_1_1"
				(pin passive line
					(at 0 0 90)
					(length 2.54)
					(name "1"
						(effects
							(font
								(size 1.27 1.27)
							)
						)
					)
					(number "1"
						(effects
							(font
								(size 1.27 1.27)
							)
						)
					)
				)
			)
		)
		(symbol "power:GND"
			(power)
			(pin_numbers hide)
			(pin_names
				(offset 0) hide)
			(exclude_from_sim no)
			(in_bom yes)
			(on_board yes)
			(property "Reference" "#PWR"
				(at 0 -6.35 0)
				(effects
					(font
						(size 1.27 1.27)
					)
					(hide yes)
				)
			)
			(property "Value" "GND"
				(at 0 -3.81 0)
				(effects
					(font
						(size 1.27 1.27)
					)
				)
			)
			(property "Footprint" ""
				(at 0 0 0)
				(effects
					(font
						(size 1.27 1.27)
					)
					(hide yes)
				)
			)
			(property "Datasheet" ""
				(at 0 0 0)
				(effects
					(font
						(size 1.27 1.27)
					)
					(hide yes)
				)
			)
			(property "Description" "Power symbol creates a global label with name \"GND\" , ground"
				(at 0 0 0)
				(effects
					(font
						(size 1.27 1.27)
					)
					(hide yes)
				)
			)
			(property "ki_keywords" "global power"
				(at 0 0 0)
				(effects
					(font
						(size 1.27 1.27)
					)
					(hide yes)
				)
			)
			(symbol "GND_0_1"
				(polyline
					(pts
						(xy 0 0) (xy 0 -1.27) (xy 1.27 -1.27) (xy 0 -2.54) (xy -1.27 -1.27) (xy 0 -1.27)
					)
					(stroke
						(width 0)
						(type default)
					)
					(fill
						(type none)
					)
				)
			)
			(symbol "GND_1_1"
				(pin power_in line
					(at 0 0 270)
					(length 0)
					(name "~"
						(effects
							(font
								(size 1.27 1.27)
							)
						)
					)
					(number "1"
						(effects
							(font
								(size 1.27 1.27)
							)
						)
					)
				)
			)
		)
	)
	(bus_entry
		(at 90.17 72.39)
		(size -2.54 -2.54)
		(stroke
			(width 0)
			(type default)
		)
		(uuid "03614013-c01a-427d-93a5-c156f8a4f1b6")
	)
	(bus_entry
		(at 90.17 128.27)
		(size -2.54 -2.54)
		(stroke
			(width 0)
			(type default)
		)
		(uuid "045b33c0-3ebc-40bc-88ac-7f4ae0fd52da")
	)
	(bus_entry
		(at 90.17 85.09)
		(size -2.54 -2.54)
		(stroke
			(width 0)
			(type default)
		)
		(uuid "04857932-166e-4a59-ad4a-aeb8806c2d11")
	)
	(bus_entry
		(at 90.17 115.57)
		(size -2.54 -2.54)
		(stroke
			(width 0)
			(type default)
		)
		(uuid "1f729875-a7c3-4bd6-ae25-e214a34e5400")
	)
	(bus_entry
		(at 90.17 102.87)
		(size -2.54 -2.54)
		(stroke
			(width 0)
			(type default)
		)
		(uuid "256341f2-0de4-42f1-8ec2-ced5aa981d56")
	)
	(bus_entry
		(at 90.17 125.73)
		(size -2.54 -2.54)
		(stroke
			(width 0)
			(type default)
		)
		(uuid "283dd17e-c49e-43b5-bc29-4479a6f26f51")
	)
	(bus_entry
		(at 90.17 87.63)
		(size -2.54 -2.54)
		(stroke
			(width 0)
			(type default)
		)
		(uuid "3d3c57d5-595a-4e8f-8889-a7b4e7b53039")
	)
	(bus_entry
		(at 90.17 77.47)
		(size -2.54 -2.54)
		(stroke
			(width 0)
			(type default)
		)
		(uuid "40d8ae03-5430-427e-84ea-0937fd821d79")
	)
	(bus_entry
		(at 90.17 69.85)
		(size -2.54 -2.54)
		(stroke
			(width 0)
			(type default)
		)
		(uuid "4b301669-968d-475d-bf1e-ceab94ed3ca3")
	)
	(bus_entry
		(at 90.17 95.25)
		(size -2.54 -2.54)
		(stroke
			(width 0)
			(type default)
		)
		(uuid "60b4c2ff-8bd0-4378-b74b-b6a63116fd7a")
	)
	(bus_entry
		(at 90.17 80.01)
		(size -2.54 -2.54)
		(stroke
			(width 0)
			(type default)
		)
		(uuid "6d28fe1a-b66f-49a7-a1f8-4b1a02d513ac")
	)
	(bus_entry
		(at 90.17 100.33)
		(size -2.54 -2.54)
		(stroke
			(width 0)
			(type default)
		)
		(uuid "7b5eb309-507b-443a-8008-04c072d61e85")
	)
	(bus_entry
		(at 90.17 97.79)
		(size -2.54 -2.54)
		(stroke
			(width 0)
			(type default)
		)
		(uuid "7bf94cfe-4cd5-42bc-9970-60a4172c9530")
	)
	(bus_entry
		(at 90.17 82.55)
		(size -2.54 -2.54)
		(stroke
			(width 0)
			(type default)
		)
		(uuid "831d4c74-60cc-4ed6-9244-c2018d1a4c97")
	)
	(bus_entry
		(at 90.17 123.19)
		(size -2.54 -2.54)
		(stroke
			(width 0)
			(type default)
		)
		(uuid "8f94c860-6ebb-4256-8186-96654532f005")
	)
	(bus_entry
		(at 90.17 107.95)
		(size -2.54 -2.54)
		(stroke
			(width 0)
			(type default)
		)
		(uuid "94b29052-566f-4920-9756-714e7eed3909")
	)
	(bus_entry
		(at 90.17 92.71)
		(size -2.54 -2.54)
		(stroke
			(width 0)
			(type default)
		)
		(uuid "9597bced-4175-42ae-8216-cab91350df30")
	)
	(bus_entry
		(at 90.17 113.03)
		(size -2.54 -2.54)
		(stroke
			(width 0)
			(type default)
		)
		(uuid "9712287f-45fd-467e-85f2-e35db954cc54")
	)
	(bus_entry
		(at 90.17 105.41)
		(size -2.54 -2.54)
		(stroke
			(width 0)
			(type default)
		)
		(uuid "97d89bf2-f79e-4c6e-8332-c7635d148242")
	)
	(bus_entry
		(at 90.17 118.11)
		(size -2.54 -2.54)
		(stroke
			(width 0)
			(type default)
		)
		(uuid "9ad26409-0c6c-4146-adc3-bc0be5ef4ad8")
	)
	(bus_entry
		(at 90.17 67.31)
		(size -2.54 -2.54)
		(stroke
			(width 0)
			(type default)
		)
		(uuid "a5823012-7246-434f-8e10-7dca2a6814c2")
	)
	(bus_entry
		(at 90.17 74.93)
		(size -2.54 -2.54)
		(stroke
			(width 0)
			(type default)
		)
		(uuid "abe9f802-275b-4c3f-997c-a8a197681ac1")
	)
	(bus_entry
		(at 90.17 90.17)
		(size -2.54 -2.54)
		(stroke
			(width 0)
			(type default)
		)
		(uuid "acd213b1-7632-4274-afdd-ee06142f7337")
	)
	(bus_entry
		(at 90.17 120.65)
		(size -2.54 -2.54)
		(stroke
			(width 0)
			(type default)
		)
		(uuid "c3623f43-7cf3-47fb-b8d6-f9c16c307ab3")
	)
	(bus_entry
		(at 90.17 110.49)
		(size -2.54 -2.54)
		(stroke
			(width 0)
			(type default)
		)
		(uuid "e907f415-d067-40f2-9b60-a1fe1b4c4ee8")
	)
	(bus_entry
		(at 90.17 64.77)
		(size -2.54 -2.54)
		(stroke
			(width 0)
			(type default)
		)
		(uuid "feb91734-dbf5-4e46-b1ab-87a47c9d7843")
	)
	(bus
		(pts
			(xy 90.17 118.11) (xy 90.17 120.65)
		)
		(stroke
			(width 0)
			(type default)
		)
		(uuid "00a6bef5-8c9e-4d9c-aaa2-17ad58dc1f43")
	)
	(wire
		(pts
			(xy 156.21 120.65) (xy 171.45 120.65)
		)
		(stroke
			(width 0)
			(type default)
		)
		(uuid "01ad526c-a3ca-4376-a58e-2e60958f8d2e")
	)
	(wire
		(pts
			(xy 156.21 100.33) (xy 171.45 100.33)
		)
		(stroke
			(width 0)
			(type default)
		)
		(uuid "02de99c7-ee0b-400c-ab5b-d3ef2626afe2")
	)
	(wire
		(pts
			(xy 72.39 80.01) (xy 87.63 80.01)
		)
		(stroke
			(width 0)
			(type default)
		)
		(uuid "052e8376-9a42-4c92-abf4-99205512778b")
	)
	(wire
		(pts
			(xy 156.21 128.27) (xy 171.45 128.27)
		)
		(stroke
			(width 0)
			(type default)
		)
		(uuid "0795ed1c-b31b-4aef-a328-d9a3b85ed880")
	)
	(bus
		(pts
			(xy 90.17 74.93) (xy 90.17 77.47)
		)
		(stroke
			(width 0)
			(type default)
		)
		(uuid "07acd2f0-7f02-49d1-a3f1-23d59589f045")
	)
	(wire
		(pts
			(xy 72.39 54.61) (xy 87.63 54.61)
		)
		(stroke
			(width 0)
			(type default)
		)
		(uuid "09da138c-6fab-4c12-9319-354ff7176da9")
	)
	(bus
		(pts
			(xy 90.17 102.87) (xy 90.17 105.41)
		)
		(stroke
			(width 0)
			(type default)
		)
		(uuid "0cd4143d-b197-480a-867b-d29e23fa8ecd")
	)
	(wire
		(pts
			(xy 72.39 102.87) (xy 87.63 102.87)
		)
		(stroke
			(width 0)
			(type default)
		)
		(uuid "0d0b0840-2746-481a-a993-a56ed500ee61")
	)
	(wire
		(pts
			(xy 72.39 74.93) (xy 87.63 74.93)
		)
		(stroke
			(width 0)
			(type default)
		)
		(uuid "122b307a-52f3-4f55-a637-7f32063a41f8")
	)
	(wire
		(pts
			(xy 72.39 67.31) (xy 87.63 67.31)
		)
		(stroke
			(width 0)
			(type default)
		)
		(uuid "1bf6ba0a-89cf-4efc-9dc8-ee281d3cef0e")
	)
	(wire
		(pts
			(xy 156.21 64.77) (xy 171.45 64.77)
		)
		(stroke
			(width 0)
			(type default)
		)
		(uuid "1f1a216a-b1c6-4162-ab26-3497ceaf055f")
	)
	(bus
		(pts
			(xy 90.17 120.65) (xy 90.17 123.19)
		)
		(stroke
			(width 0)
			(type default)
		)
		(uuid "1ff2e3b1-b70c-4986-bb22-fc092520d321")
	)
	(wire
		(pts
			(xy 72.39 125.73) (xy 87.63 125.73)
		)
		(stroke
			(width 0)
			(type default)
		)
		(uuid "23d586f0-b3cc-46ca-8413-b3acf5d63458")
	)
	(bus
		(pts
			(xy 90.17 82.55) (xy 90.17 85.09)
		)
		(stroke
			(width 0)
			(type default)
		)
		(uuid "2527a94d-f671-40c7-95bc-bfa40df2647b")
	)
	(wire
		(pts
			(xy 156.21 87.63) (xy 171.45 87.63)
		)
		(stroke
			(width 0)
			(type default)
		)
		(uuid "256d1590-fce0-48e4-8b70-f00b8f7ab798")
	)
	(bus
		(pts
			(xy 90.17 128.27) (xy 90.17 130.81)
		)
		(stroke
			(width 0)
			(type default)
		)
		(uuid "25e80554-b02c-4961-92ca-00e5d6bfe89f")
	)
	(wire
		(pts
			(xy 72.39 120.65) (xy 87.63 120.65)
		)
		(stroke
			(width 0)
			(type default)
		)
		(uuid "26f8fbe3-54b1-4e44-ac70-fcfd87b630fc")
	)
	(wire
		(pts
			(xy 156.21 118.11) (xy 171.45 118.11)
		)
		(stroke
			(width 0)
			(type default)
		)
		(uuid "2737d7fe-0bc4-4041-9d13-fe430a713e3b")
	)
	(wire
		(pts
			(xy 72.39 82.55) (xy 87.63 82.55)
		)
		(stroke
			(width 0)
			(type default)
		)
		(uuid "278e0172-8daf-4cb5-b756-41a24ab08132")
	)
	(bus
		(pts
			(xy 90.17 123.19) (xy 90.17 125.73)
		)
		(stroke
			(width 0)
			(type default)
		)
		(uuid "28c89be2-95c4-4138-ba3c-492329b72347")
	)
	(wire
		(pts
			(xy 156.21 113.03) (xy 171.45 113.03)
		)
		(stroke
			(width 0)
			(type default)
		)
		(uuid "2ac8c42d-1559-4782-985c-db49411feb7c")
	)
	(wire
		(pts
			(xy 72.39 85.09) (xy 87.63 85.09)
		)
		(stroke
			(width 0)
			(type default)
		)
		(uuid "2bc09413-aecd-4e03-be70-e9c90252f093")
	)
	(wire
		(pts
			(xy 156.21 69.85) (xy 171.45 69.85)
		)
		(stroke
			(width 0)
			(type default)
		)
		(uuid "328dffaa-9551-48ea-802d-3a2ce3c42ab3")
	)
	(wire
		(pts
			(xy 156.21 77.47) (xy 171.45 77.47)
		)
		(stroke
			(width 0)
			(type default)
		)
		(uuid "38f6c9a8-bbf1-4120-baf6-f7c54a02755e")
	)
	(wire
		(pts
			(xy 72.39 57.15) (xy 87.63 57.15)
		)
		(stroke
			(width 0)
			(type default)
		)
		(uuid "39f426da-82b0-4846-a516-53ebcfc4edb2")
	)
	(wire
		(pts
			(xy 156.21 72.39) (xy 171.45 72.39)
		)
		(stroke
			(width 0)
			(type default)
		)
		(uuid "3ff086b3-3624-4b27-a831-4b8b6d342f2d")
	)
	(wire
		(pts
			(xy 72.39 105.41) (xy 87.63 105.41)
		)
		(stroke
			(width 0)
			(type default)
		)
		(uuid "4555216b-438a-4375-b00a-dd48ddbe482f")
	)
	(wire
		(pts
			(xy 156.21 105.41) (xy 171.45 105.41)
		)
		(stroke
			(width 0)
			(type default)
		)
		(uuid "473a6750-422a-42bc-a046-f5c1bd23e9b9")
	)
	(bus
		(pts
			(xy 90.17 92.71) (xy 90.17 95.25)
		)
		(stroke
			(width 0)
			(type default)
		)
		(uuid "4b8bb089-82da-42c4-b9a0-ddccbe6b16a1")
	)
	(bus
		(pts
			(xy 90.17 85.09) (xy 90.17 87.63)
		)
		(stroke
			(width 0)
			(type default)
		)
		(uuid "4d23fb3b-19eb-41bb-9e02-e9feb41ef1ce")
	)
	(wire
		(pts
			(xy 72.39 100.33) (xy 87.63 100.33)
		)
		(stroke
			(width 0)
			(type default)
		)
		(uuid "4e13fe53-8225-4e22-9e4e-bab40f9962f6")
	)
	(wire
		(pts
			(xy 72.39 59.69) (xy 87.63 59.69)
		)
		(stroke
			(width 0)
			(type default)
		)
		(uuid "569a61c7-967d-42ad-8c93-5447e9dbafba")
	)
	(wire
		(pts
			(xy 82.55 128.27) (xy 82.55 129.54)
		)
		(stroke
			(width 0)
			(type default)
		)
		(uuid "56c34f7a-61a2-4c3c-8d4a-0c8d81c863ae")
	)
	(wire
		(pts
			(xy 72.39 64.77) (xy 87.63 64.77)
		)
		(stroke
			(width 0)
			(type default)
		)
		(uuid "57f22796-1523-4e30-8cd0-bca603bfa352")
	)
	(wire
		(pts
			(xy 156.21 62.23) (xy 171.45 62.23)
		)
		(stroke
			(width 0)
			(type default)
		)
		(uuid "5bba319a-2383-4ac4-a88f-3780aebb8731")
	)
	(bus
		(pts
			(xy 90.17 80.01) (xy 90.17 82.55)
		)
		(stroke
			(width 0)
			(type default)
		)
		(uuid "5f19a96f-44f3-4de3-9ddc-96e0a8f6841c")
	)
	(bus
		(pts
			(xy 90.17 115.57) (xy 90.17 118.11)
		)
		(stroke
			(width 0)
			(type default)
		)
		(uuid "5fc0b2d9-b7e5-4154-b2d5-ea6a5dc08048")
	)
	(bus
		(pts
			(xy 90.17 110.49) (xy 90.17 113.03)
		)
		(stroke
			(width 0)
			(type default)
		)
		(uuid "62f1a12a-cd10-46c7-8e5f-d78015d9b7b5")
	)
	(bus
		(pts
			(xy 100.33 130.81) (xy 90.17 130.81)
		)
		(stroke
			(width 0)
			(type default)
		)
		(uuid "6f51c2e3-6bb3-46a3-a339-270ec40f5317")
	)
	(wire
		(pts
			(xy 156.21 115.57) (xy 171.45 115.57)
		)
		(stroke
			(width 0)
			(type default)
		)
		(uuid "71944938-af79-4cdd-b270-601efd3d27c2")
	)
	(bus
		(pts
			(xy 90.17 72.39) (xy 90.17 74.93)
		)
		(stroke
			(width 0)
			(type default)
		)
		(uuid "7219f0fa-d514-4ea1-9d41-e3f09450429c")
	)
	(wire
		(pts
			(xy 72.39 113.03) (xy 87.63 113.03)
		)
		(stroke
			(width 0)
			(type default)
		)
		(uuid "74ba6e1f-55fe-4702-9f44-6f1ead163b2f")
	)
	(bus
		(pts
			(xy 90.17 64.77) (xy 90.17 67.31)
		)
		(stroke
			(width 0)
			(type default)
		)
		(uuid "75a765b3-2b5e-46c6-bcd3-74c317c04442")
	)
	(bus
		(pts
			(xy 90.17 100.33) (xy 90.17 102.87)
		)
		(stroke
			(width 0)
			(type default)
		)
		(uuid "776ba5c2-8470-4698-95c4-60a0012f44ff")
	)
	(wire
		(pts
			(xy 156.21 82.55) (xy 171.45 82.55)
		)
		(stroke
			(width 0)
			(type default)
		)
		(uuid "7d1a8d39-697c-47e3-811c-a74d48f416cb")
	)
	(wire
		(pts
			(xy 156.21 97.79) (xy 171.45 97.79)
		)
		(stroke
			(width 0)
			(type default)
		)
		(uuid "7ee75f46-61f6-47ee-b6d3-fb14b54393ee")
	)
	(wire
		(pts
			(xy 156.21 125.73) (xy 171.45 125.73)
		)
		(stroke
			(width 0)
			(type default)
		)
		(uuid "8896a823-9b53-48d0-bd5a-70c1d53eeac9")
	)
	(wire
		(pts
			(xy 156.21 123.19) (xy 171.45 123.19)
		)
		(stroke
			(width 0)
			(type default)
		)
		(uuid "8b500137-8382-4c82-89a0-c819d4e1b76a")
	)
	(wire
		(pts
			(xy 72.39 107.95) (xy 87.63 107.95)
		)
		(stroke
			(width 0)
			(type default)
		)
		(uuid "93b3771e-d6cb-43db-b241-2cb6547f1470")
	)
	(bus
		(pts
			(xy 90.17 125.73) (xy 90.17 128.27)
		)
		(stroke
			(width 0)
			(type default)
		)
		(uuid "9c159ff2-4a8a-4e07-825c-4065ad52e4e4")
	)
	(wire
		(pts
			(xy 72.39 118.11) (xy 87.63 118.11)
		)
		(stroke
			(width 0)
			(type default)
		)
		(uuid "9cccda03-3d49-4f97-92df-5f9f3fe0d045")
	)
	(wire
		(pts
			(xy 72.39 95.25) (xy 87.63 95.25)
		)
		(stroke
			(width 0)
			(type default)
		)
		(uuid "a0089e39-8096-4ba7-bca5-2f263932fc07")
	)
	(bus
		(pts
			(xy 90.17 97.79) (xy 90.17 100.33)
		)
		(stroke
			(width 0)
			(type default)
		)
		(uuid "a31b0f26-f64d-471e-ab6e-d2f69baf3d87")
	)
	(bus
		(pts
			(xy 90.17 69.85) (xy 90.17 72.39)
		)
		(stroke
			(width 0)
			(type default)
		)
		(uuid "a4978747-a448-401e-8cca-b2b0bd918255")
	)
	(bus
		(pts
			(xy 90.17 113.03) (xy 90.17 115.57)
		)
		(stroke
			(width 0)
			(type default)
		)
		(uuid "a49a4d74-3da4-459d-a2d2-c9ac880ddfda")
	)
	(wire
		(pts
			(xy 156.21 74.93) (xy 171.45 74.93)
		)
		(stroke
			(width 0)
			(type default)
		)
		(uuid "ae397368-aa2a-40ae-8423-cc91d97bb9a2")
	)
	(wire
		(pts
			(xy 72.39 69.85) (xy 87.63 69.85)
		)
		(stroke
			(width 0)
			(type default)
		)
		(uuid "b6886829-02f9-4140-b880-ee9ee845fb5a")
	)
	(wire
		(pts
			(xy 156.21 59.69) (xy 171.45 59.69)
		)
		(stroke
			(width 0)
			(type default)
		)
		(uuid "b91d7d85-a3b5-45b8-b64d-fb8fa237ae9c")
	)
	(wire
		(pts
			(xy 156.21 110.49) (xy 171.45 110.49)
		)
		(stroke
			(width 0)
			(type default)
		)
		(uuid "ba0502a3-b302-4e5f-bb88-973fd7a97f45")
	)
	(bus
		(pts
			(xy 90.17 107.95) (xy 102.87 107.95)
		)
		(stroke
			(width 0)
			(type default)
		)
		(uuid "ba222714-a700-4143-bcaa-be14952f1843")
	)
	(wire
		(pts
			(xy 156.21 80.01) (xy 171.45 80.01)
		)
		(stroke
			(width 0)
			(type default)
		)
		(uuid "bcbae562-f761-4303-a2fc-edb8f4335455")
	)
	(wire
		(pts
			(xy 72.39 110.49) (xy 87.63 110.49)
		)
		(stroke
			(width 0)
			(type default)
		)
		(uuid "bd8fcf81-ff83-4171-bb44-ad481cab1ebd")
	)
	(bus
		(pts
			(xy 90.17 90.17) (xy 90.17 92.71)
		)
		(stroke
			(width 0)
			(type default)
		)
		(uuid "c3110a8e-91fa-499c-98c2-8b06c9008f16")
	)
	(wire
		(pts
			(xy 72.39 115.57) (xy 87.63 115.57)
		)
		(stroke
			(width 0)
			(type default)
		)
		(uuid "c990260b-6793-4119-8548-75bbb344d581")
	)
	(bus
		(pts
			(xy 90.17 105.41) (xy 90.17 107.95)
		)
		(stroke
			(width 0)
			(type default)
		)
		(uuid "cae9d3b2-41cd-491e-a9d3-aa1d860d3d0c")
	)
	(wire
		(pts
			(xy 156.21 92.71) (xy 171.45 92.71)
		)
		(stroke
			(width 0)
			(type default)
		)
		(uuid "d25bad19-c912-4744-a115-7506f22c99c1")
	)
	(wire
		(pts
			(xy 156.21 95.25) (xy 171.45 95.25)
		)
		(stroke
			(width 0)
			(type default)
		)
		(uuid "d5f14656-d09c-4b77-b12a-699901847c67")
	)
	(wire
		(pts
			(xy 156.21 107.95) (xy 171.45 107.95)
		)
		(stroke
			(width 0)
			(type default)
		)
		(uuid "d607279c-8245-42f6-bec0-fa928cd897d4")
	)
	(wire
		(pts
			(xy 156.21 102.87) (xy 171.45 102.87)
		)
		(stroke
			(width 0)
			(type default)
		)
		(uuid "d8381844-8ed5-495c-a389-8fe54b0929e4")
	)
	(wire
		(pts
			(xy 72.39 87.63) (xy 87.63 87.63)
		)
		(stroke
			(width 0)
			(type default)
		)
		(uuid "db09e847-0e8d-475e-941e-c2f561254e2a")
	)
	(wire
		(pts
			(xy 156.21 90.17) (xy 171.45 90.17)
		)
		(stroke
			(width 0)
			(type default)
		)
		(uuid "dd8ee333-0876-4b4e-82ba-3ea1827ac1c4")
	)
	(wire
		(pts
			(xy 156.21 67.31) (xy 171.45 67.31)
		)
		(stroke
			(width 0)
			(type default)
		)
		(uuid "e143001f-23da-40c2-a4b9-1e9efbda59c4")
	)
	(wire
		(pts
			(xy 72.39 128.27) (xy 82.55 128.27)
		)
		(stroke
			(width 0)
			(type default)
		)
		(uuid "e26451a5-a1a9-4360-8fd2-aa18b3215aa7")
	)
	(bus
		(pts
			(xy 90.17 77.47) (xy 90.17 80.01)
		)
		(stroke
			(width 0)
			(type default)
		)
		(uuid "e2e2e39f-0966-4eb3-b475-fd3c93283e51")
	)
	(wire
		(pts
			(xy 156.21 57.15) (xy 171.45 57.15)
		)
		(stroke
			(width 0)
			(type default)
		)
		(uuid "e3508f60-7eb2-4221-a84c-82af03519805")
	)
	(wire
		(pts
			(xy 72.39 92.71) (xy 87.63 92.71)
		)
		(stroke
			(width 0)
			(type default)
		)
		(uuid "e3f140b3-b42d-4320-a7c3-f7bc11ceb152")
	)
	(wire
		(pts
			(xy 72.39 123.19) (xy 87.63 123.19)
		)
		(stroke
			(width 0)
			(type default)
		)
		(uuid "e438e117-74d2-4b30-8cf6-319e18897931")
	)
	(wire
		(pts
			(xy 156.21 85.09) (xy 171.45 85.09)
		)
		(stroke
			(width 0)
			(type default)
		)
		(uuid "e6fa9ba7-3519-45c1-8c56-57e06e932625")
	)
	(wire
		(pts
			(xy 72.39 77.47) (xy 87.63 77.47)
		)
		(stroke
			(width 0)
			(type default)
		)
		(uuid "ea0230a8-8571-417b-9fe3-fb2c6aca183f")
	)
	(wire
		(pts
			(xy 72.39 72.39) (xy 87.63 72.39)
		)
		(stroke
			(width 0)
			(type default)
		)
		(uuid "ea225036-b09b-4808-a584-7e60ef11b40a")
	)
	(bus
		(pts
			(xy 90.17 87.63) (xy 90.17 90.17)
		)
		(stroke
			(width 0)
			(type default)
		)
		(uuid "ec05eea1-0e86-42b2-9513-7cbd81934147")
	)
	(wire
		(pts
			(xy 72.39 62.23) (xy 87.63 62.23)
		)
		(stroke
			(width 0)
			(type default)
		)
		(uuid "ef683e4f-6278-481a-88a6-f84d696a766f")
	)
	(bus
		(pts
			(xy 90.17 95.25) (xy 90.17 97.79)
		)
		(stroke
			(width 0)
			(type default)
		)
		(uuid "f121b139-c286-4d72-b96a-ae020bb1a8e5")
	)
	(bus
		(pts
			(xy 90.17 67.31) (xy 90.17 69.85)
		)
		(stroke
			(width 0)
			(type default)
		)
		(uuid "f4ed71b7-3d38-4ca7-bf4a-90497075914c")
	)
	(wire
		(pts
			(xy 72.39 90.17) (xy 87.63 90.17)
		)
		(stroke
			(width 0)
			(type default)
		)
		(uuid "f641dba6-1544-4656-8c33-8aeec49de6d3")
	)
	(wire
		(pts
			(xy 72.39 97.79) (xy 87.63 97.79)
		)
		(stroke
			(width 0)
			(type default)
		)
		(uuid "f73b09b5-e46c-45e7-a478-bfaff80b44b6")
	)
	(text "MATRIX TEST POINTS"
		(exclude_from_sim no)
		(at 141.478 42.926 0)
		(effects
			(font
				(size 1.27 1.27)
			)
		)
		(uuid "313dfe69-c515-4fcf-a3ac-1e1bd126f84b")
	)
	(text "KEYBOARD MATRIX"
		(exclude_from_sim no)
		(at 55.118 43.18 0)
		(effects
			(font
				(size 1.27 1.27)
			)
		)
		(uuid "47b036c5-5219-40d7-826e-572ddcf83e6c")
	)
	(label "COL6"
		(at 72.39 92.71 0)
		(fields_autoplaced yes)
		(effects
			(font
				(size 1.27 1.27)
			)
			(justify left bottom)
		)
		(uuid "00e205d2-e286-4259-a1b3-7b73753bcd3e")
	)
	(label "ROW4"
		(at 171.45 120.65 180)
		(fields_autoplaced yes)
		(effects
			(font
				(size 1.27 1.27)
			)
			(justify right bottom)
		)
		(uuid "0347d04e-fb33-49ba-be2b-4720dcfdeed6")
	)
	(label "ROW7"
		(at 171.45 113.03 180)
		(fields_autoplaced yes)
		(effects
			(font
				(size 1.27 1.27)
			)
			(justify right bottom)
		)
		(uuid "09a5580b-f35e-4072-ac8f-c1b254927da4")
	)
	(label "ROW7"
		(at 72.39 110.49 0)
		(fields_autoplaced yes)
		(effects
			(font
				(size 1.27 1.27)
			)
			(justify left bottom)
		)
		(uuid "0e13e018-8fb4-4526-aafc-a2ab319d5805")
	)
	(label "COL15"
		(at 171.45 72.39 180)
		(fields_autoplaced yes)
		(effects
			(font
				(size 1.27 1.27)
			)
			(justify right bottom)
		)
		(uuid "0e721b8b-8bda-400d-bb15-fcf789dd7a83")
	)
	(label "COL1"
		(at 72.39 105.41 0)
		(fields_autoplaced yes)
		(effects
			(font
				(size 1.27 1.27)
			)
			(justify left bottom)
		)
		(uuid "1ba179ba-cbfe-43b8-a732-c3b9c21b3f33")
	)
	(label "ROW2"
		(at 72.39 123.19 0)
		(fields_autoplaced yes)
		(effects
			(font
				(size 1.27 1.27)
			)
			(justify left bottom)
		)
		(uuid "200a0803-662c-4ea4-930d-e81d973658b5")
	)
	(label "COL6"
		(at 171.45 95.25 180)
		(fields_autoplaced yes)
		(effects
			(font
				(size 1.27 1.27)
			)
			(justify right bottom)
		)
		(uuid "2a5c3b7e-e0f2-4288-afeb-42f3a2968a9a")
	)
	(label "COL7"
		(at 72.39 90.17 0)
		(fields_autoplaced yes)
		(effects
			(font
				(size 1.27 1.27)
			)
			(justify left bottom)
		)
		(uuid "2abf53de-4a9d-4977-be56-e7ebcee877d3")
	)
	(label "ROW4"
		(at 72.39 118.11 0)
		(fields_autoplaced yes)
		(effects
			(font
				(size 1.27 1.27)
			)
			(justify left bottom)
		)
		(uuid "2cf49a84-30f3-4c16-860a-5c300f6487ea")
	)
	(label "COL9"
		(at 171.45 87.63 180)
		(fields_autoplaced yes)
		(effects
			(font
				(size 1.27 1.27)
			)
			(justify right bottom)
		)
		(uuid "2d03fab5-e7cd-4ed6-a2c3-ffc25b79bd32")
	)
	(label "FN_SWITCH"
		(at 171.45 57.15 180)
		(fields_autoplaced yes)
		(effects
			(font
				(size 1.27 1.27)
			)
			(justify right bottom)
		)
		(uuid "37ab491f-5f8b-4b73-b4d7-2c319d1bbbf3")
	)
	(label "COL5"
		(at 171.45 97.79 180)
		(fields_autoplaced yes)
		(effects
			(font
				(size 1.27 1.27)
			)
			(justify right bottom)
		)
		(uuid "3d022347-d2af-407a-a198-c23007c7321f")
	)
	(label "ROW2"
		(at 171.45 125.73 180)
		(fields_autoplaced yes)
		(effects
			(font
				(size 1.27 1.27)
			)
			(justify right bottom)
		)
		(uuid "3d41e60d-14e4-40d7-9901-57016f4c3da8")
	)
	(label "COL2"
		(at 72.39 102.87 0)
		(fields_autoplaced yes)
		(effects
			(font
				(size 1.27 1.27)
			)
			(justify left bottom)
		)
		(uuid "3d8dd72f-9ee1-4382-ae59-b8588750e24d")
	)
	(label "COL7"
		(at 171.45 92.71 180)
		(fields_autoplaced yes)
		(effects
			(font
				(size 1.27 1.27)
			)
			(justify right bottom)
		)
		(uuid "3f58075c-7b2f-48a5-aba3-39630a5f74d7")
	)
	(label "ROW5"
		(at 171.45 118.11 180)
		(fields_autoplaced yes)
		(effects
			(font
				(size 1.27 1.27)
			)
			(justify right bottom)
		)
		(uuid "407c9e4b-4453-49a3-90b4-04c782cdcf2f")
	)
	(label "COL14"
		(at 72.39 72.39 0)
		(fields_autoplaced yes)
		(effects
			(font
				(size 1.27 1.27)
			)
			(justify left bottom)
		)
		(uuid "4479751d-de1c-461a-9ebc-89bcfc4ff51a")
	)
	(label "COL10"
		(at 171.45 85.09 180)
		(fields_autoplaced yes)
		(effects
			(font
				(size 1.27 1.27)
			)
			(justify right bottom)
		)
		(uuid "453250ea-a33c-42db-a945-a6388c9958da")
	)
	(label "ROW1"
		(at 72.39 125.73 0)
		(fields_autoplaced yes)
		(effects
			(font
				(size 1.27 1.27)
			)
			(justify left bottom)
		)
		(uuid "4ec9f66d-e4a3-459e-b782-f8e68c5ad6a0")
	)
	(label "COL2"
		(at 171.45 105.41 180)
		(fields_autoplaced yes)
		(effects
			(font
				(size 1.27 1.27)
			)
			(justify right bottom)
		)
		(uuid "53e29d01-e2cb-42c0-a157-7c7750bc0499")
	)
	(label "COL4"
		(at 171.45 100.33 180)
		(fields_autoplaced yes)
		(effects
			(font
				(size 1.27 1.27)
			)
			(justify right bottom)
		)
		(uuid "54685b63-0482-4779-9880-a97881569c85")
	)
	(label "COL13"
		(at 171.45 77.47 180)
		(fields_autoplaced yes)
		(effects
			(font
				(size 1.27 1.27)
			)
			(justify right bottom)
		)
		(uuid "5548a398-d03c-4379-878e-e51551de8629")
	)
	(label "ROW8"
		(at 72.39 107.95 0)
		(fields_autoplaced yes)
		(effects
			(font
				(size 1.27 1.27)
			)
			(justify left bottom)
		)
		(uuid "655a3e3a-2861-4f2f-8545-6fb563cd5d15")
	)
	(label "ROW3"
		(at 72.39 120.65 0)
		(fields_autoplaced yes)
		(effects
			(font
				(size 1.27 1.27)
			)
			(justify left bottom)
		)
		(uuid "6be10d87-d0e9-4ec0-b9ad-38343a0e1993")
	)
	(label "LED_Q1"
		(at 171.45 62.23 180)
		(fields_autoplaced yes)
		(effects
			(font
				(size 1.27 1.27)
			)
			(justify right bottom)
		)
		(uuid "73f6cd22-c48a-4761-bdea-cf94a83fe7af")
	)
	(label "COL9"
		(at 72.39 85.09 0)
		(fields_autoplaced yes)
		(effects
			(font
				(size 1.27 1.27)
			)
			(justify left bottom)
		)
		(uuid "7a00e6af-689c-4f8b-8e6a-ff40c1cc2b39")
	)
	(label "ROW8"
		(at 171.45 110.49 180)
		(fields_autoplaced yes)
		(effects
			(font
				(size 1.27 1.27)
			)
			(justify right bottom)
		)
		(uuid "7ad80f8e-6797-45fc-99ce-0c21a9c61b32")
	)
	(label "COL17"
		(at 171.45 67.31 180)
		(fields_autoplaced yes)
		(effects
			(font
				(size 1.27 1.27)
			)
			(justify right bottom)
		)
		(uuid "7f6062c5-3fb4-4092-9129-025cffefef99")
	)
	(label "ROW5"
		(at 72.39 115.57 0)
		(fields_autoplaced yes)
		(effects
			(font
				(size 1.27 1.27)
			)
			(justify left bottom)
		)
		(uuid "880e3f6a-2475-46ac-a8e6-a02bf79e5d19")
	)
	(label "COL5"
		(at 72.39 95.25 0)
		(fields_autoplaced yes)
		(effects
			(font
				(size 1.27 1.27)
			)
			(justify left bottom)
		)
		(uuid "8a657079-c7a4-4492-aca1-e7c66e1651a5")
	)
	(label "COL15"
		(at 72.39 69.85 0)
		(fields_autoplaced yes)
		(effects
			(font
				(size 1.27 1.27)
			)
			(justify left bottom)
		)
		(uuid "8deaa826-5513-4942-aae8-64a0ff76fabf")
	)
	(label "ROW6"
		(at 72.39 113.03 0)
		(fields_autoplaced yes)
		(effects
			(font
				(size 1.27 1.27)
			)
			(justify left bottom)
		)
		(uuid "8faa3c5c-1165-4cc7-9774-72ce8a9a3fd2")
	)
	(label "COL10"
		(at 72.39 82.55 0)
		(fields_autoplaced yes)
		(effects
			(font
				(size 1.27 1.27)
			)
			(justify left bottom)
		)
		(uuid "92f6548e-094a-4a5e-a014-18b95c21a106")
	)
	(label "COL3"
		(at 72.39 100.33 0)
		(fields_autoplaced yes)
		(effects
			(font
				(size 1.27 1.27)
			)
			(justify left bottom)
		)
		(uuid "95987f9f-97d4-4ce7-85a1-f78817fb6bb7")
	)
	(label "COL8"
		(at 171.45 90.17 180)
		(fields_autoplaced yes)
		(effects
			(font
				(size 1.27 1.27)
			)
			(justify right bottom)
		)
		(uuid "999b716e-e7f5-466a-8c00-3715f8e4b02f")
	)
	(label "COL1"
		(at 171.45 107.95 180)
		(fields_autoplaced yes)
		(effects
			(font
				(size 1.27 1.27)
			)
			(justify right bottom)
		)
		(uuid "9e67839c-fa51-4196-b6c3-2ffa26953e4c")
	)
	(label "COL12"
		(at 72.39 77.47 0)
		(fields_autoplaced yes)
		(effects
			(font
				(size 1.27 1.27)
			)
			(justify left bottom)
		)
		(uuid "ae30bbdf-3647-4d96-9b8e-77cc8e8b79c5")
	)
	(label "COL18"
		(at 72.39 62.23 0)
		(fields_autoplaced yes)
		(effects
			(font
				(size 1.27 1.27)
			)
			(justify left bottom)
		)
		(uuid "b17dc460-5229-45b2-8ed5-7095f4050ac4")
	)
	(label "ROW1"
		(at 171.45 128.27 180)
		(fields_autoplaced yes)
		(effects
			(font
				(size 1.27 1.27)
			)
			(justify right bottom)
		)
		(uuid "b668216e-2b80-41f0-ae99-ab1d186ce0e6")
	)
	(label "COL18"
		(at 171.45 64.77 180)
		(fields_autoplaced yes)
		(effects
			(font
				(size 1.27 1.27)
			)
			(justify right bottom)
		)
		(uuid "b87d587b-cea7-4040-bb3f-972c46f1480f")
	)
	(label "COL14"
		(at 171.45 74.93 180)
		(fields_autoplaced yes)
		(effects
			(font
				(size 1.27 1.27)
			)
			(justify right bottom)
		)
		(uuid "bb245afd-2e2e-48a3-b6ab-2fb1cc29b519")
	)
	(label "COL4"
		(at 72.39 97.79 0)
		(fields_autoplaced yes)
		(effects
			(font
				(size 1.27 1.27)
			)
			(justify left bottom)
		)
		(uuid "bf41f762-a20c-4fa9-9143-2b0c58ce778b")
	)
	(label "COL11"
		(at 72.39 80.01 0)
		(fields_autoplaced yes)
		(effects
			(font
				(size 1.27 1.27)
			)
			(justify left bottom)
		)
		(uuid "c335e064-64fc-4802-9c8d-0d0eb5853742")
	)
	(label "COL16"
		(at 171.45 69.85 180)
		(fields_autoplaced yes)
		(effects
			(font
				(size 1.27 1.27)
			)
			(justify right bottom)
		)
		(uuid "c5a77ad0-76e4-4c16-b8bf-2c4162c77fc3")
	)
	(label "COL11"
		(at 171.45 82.55 180)
		(fields_autoplaced yes)
		(effects
			(font
				(size 1.27 1.27)
			)
			(justify right bottom)
		)
		(uuid "c6f70147-da58-484a-8e9b-3e76e6556745")
	)
	(label "LED_Q2"
		(at 171.45 59.69 180)
		(fields_autoplaced yes)
		(effects
			(font
				(size 1.27 1.27)
			)
			(justify right bottom)
		)
		(uuid "d134a158-1969-4d16-ab83-508e3c264a4f")
	)
	(label "COL17"
		(at 72.39 64.77 0)
		(fields_autoplaced yes)
		(effects
			(font
				(size 1.27 1.27)
			)
			(justify left bottom)
		)
		(uuid "d31c816f-4521-4fcf-abed-d8ec5929b6d2")
	)
	(label "COL3"
		(at 171.45 102.87 180)
		(fields_autoplaced yes)
		(effects
			(font
				(size 1.27 1.27)
			)
			(justify right bottom)
		)
		(uuid "e20275d1-b8da-4dae-996c-fff40f5ddff1")
	)
	(label "COL12"
		(at 171.45 80.01 180)
		(fields_autoplaced yes)
		(effects
			(font
				(size 1.27 1.27)
			)
			(justify right bottom)
		)
		(uuid "e366dd84-25e2-4392-adfc-66a18a0538fb")
	)
	(label "ROW3"
		(at 171.45 123.19 180)
		(fields_autoplaced yes)
		(effects
			(font
				(size 1.27 1.27)
			)
			(justify right bottom)
		)
		(uuid "e3ca96c0-c349-44d1-ad1d-41c6af3a1302")
	)
	(label "COL13"
		(at 72.39 74.93 0)
		(fields_autoplaced yes)
		(effects
			(font
				(size 1.27 1.27)
			)
			(justify left bottom)
		)
		(uuid "f3a8a3e4-a5b0-4427-be62-a0541b6652a5")
	)
	(label "ROW6"
		(at 171.45 115.57 180)
		(fields_autoplaced yes)
		(effects
			(font
				(size 1.27 1.27)
			)
			(justify right bottom)
		)
		(uuid "f78a056b-f60c-4ae2-be1d-bc783daec077")
	)
	(label "COL16"
		(at 72.39 67.31 0)
		(fields_autoplaced yes)
		(effects
			(font
				(size 1.27 1.27)
			)
			(justify left bottom)
		)
		(uuid "f94b7c87-6044-4fea-81b2-fa499162b917")
	)
	(label "COL8"
		(at 72.39 87.63 0)
		(fields_autoplaced yes)
		(effects
			(font
				(size 1.27 1.27)
			)
			(justify left bottom)
		)
		(uuid "ff331827-c833-4640-b294-7f120a43ce35")
	)
	(hierarchical_label "LED_Q1"
		(shape input)
		(at 87.63 59.69 0)
		(fields_autoplaced yes)
		(effects
			(font
				(size 1.27 1.27)
			)
			(justify left)
		)
		(uuid "0a1e3c68-acc9-4eb7-b7de-5c2451829af1")
	)
	(hierarchical_label "ROW[1..8]"
		(shape input)
		(at 100.33 130.81 0)
		(fields_autoplaced yes)
		(effects
			(font
				(size 1.27 1.27)
			)
			(justify left)
		)
		(uuid "96018972-06c3-4658-9c08-a059031f2424")
	)
	(hierarchical_label "FN_SWITCH"
		(shape input)
		(at 87.63 54.61 0)
		(fields_autoplaced yes)
		(effects
			(font
				(size 1.27 1.27)
			)
			(justify left)
		)
		(uuid "9aff70bb-ce64-4ae5-bbe0-99530f1b24b3")
	)
	(hierarchical_label "LED_Q2"
		(shape input)
		(at 87.63 57.15 0)
		(fields_autoplaced yes)
		(effects
			(font
				(size 1.27 1.27)
			)
			(justify left)
		)
		(uuid "d4e58a9c-834c-40ea-9c86-6f79e64a33fa")
	)
	(hierarchical_label "COL[1..18]"
		(shape input)
		(at 102.87 107.95 0)
		(fields_autoplaced yes)
		(effects
			(font
				(size 1.27 1.27)
			)
			(justify left)
		)
		(uuid "d8f932a7-7679-4084-b104-501ad638fea6")
	)
	(symbol
		(lib_id "Connector:TestPoint")
		(at 156.21 62.23 90)
		(unit 1)
		(exclude_from_sim no)
		(in_bom yes)
		(on_board yes)
		(dnp no)
		(uuid "079b3da5-7c6e-4afd-b920-1160b19ecbe3")
		(property "Reference" "TP31"
			(at 148.844 62.23 90)
			(effects
				(font
					(size 1.27 1.27)
				)
			)
		)
		(property "Value" "TestPoint"
			(at 142.24 62.23 90)
			(effects
				(font
					(size 1.27 1.27)
				)
			)
		)
		(property "Footprint" "TestPoint:TestPoint_Pad_D1.0mm"
			(at 156.21 57.15 0)
			(effects
				(font
					(size 1.27 1.27)
				)
				(hide yes)
			)
		)
		(property "Datasheet" "~"
			(at 156.21 57.15 0)
			(effects
				(font
					(size 1.27 1.27)
				)
				(hide yes)
			)
		)
		(property "Description" "test point"
			(at 156.21 62.23 0)
			(effects
				(font
					(size 1.27 1.27)
				)
				(hide yes)
			)
		)
		(pin "1"
			(uuid "6053c793-7c32-473b-98a8-1ad088f4e3eb")
		)
		(instances
			(project "sculpt-zmk"
				(path "/a5934cc4-26db-4c86-8620-c5cd32ec0c39/5ad59400-2dcb-4023-99cc-96de7b2afa6b"
					(reference "TP31")
					(unit 1)
				)
			)
		)
	)
	(symbol
		(lib_id "Connector:TestPoint")
		(at 156.21 110.49 90)
		(mirror x)
		(unit 1)
		(exclude_from_sim no)
		(in_bom yes)
		(on_board yes)
		(dnp no)
		(uuid "114b602e-db4f-41f2-a33f-7f78c3476399")
		(property "Reference" "TP12"
			(at 148.844 110.49 90)
			(effects
				(font
					(size 1.27 1.27)
				)
			)
		)
		(property "Value" "TestPoint"
			(at 142.24 110.49 90)
			(effects
				(font
					(size 1.27 1.27)
				)
			)
		)
		(property "Footprint" "TestPoint:TestPoint_Pad_D1.0mm"
			(at 156.21 115.57 0)
			(effects
				(font
					(size 1.27 1.27)
				)
				(hide yes)
			)
		)
		(property "Datasheet" "~"
			(at 156.21 115.57 0)
			(effects
				(font
					(size 1.27 1.27)
				)
				(hide yes)
			)
		)
		(property "Description" "test point"
			(at 156.21 110.49 0)
			(effects
				(font
					(size 1.27 1.27)
				)
				(hide yes)
			)
		)
		(pin "1"
			(uuid "19288f18-4e8f-422c-9523-ffc5f77aface")
		)
		(instances
			(project "sculpt-zmk"
				(path "/a5934cc4-26db-4c86-8620-c5cd32ec0c39/5ad59400-2dcb-4023-99cc-96de7b2afa6b"
					(reference "TP12")
					(unit 1)
				)
			)
		)
	)
	(symbol
		(lib_id "power:GND")
		(at 82.55 129.54 0)
		(unit 1)
		(exclude_from_sim no)
		(in_bom yes)
		(on_board yes)
		(dnp no)
		(fields_autoplaced yes)
		(uuid "15005a7b-c129-4594-9b5e-1ae85acd58c3")
		(property "Reference" "#PWR026"
			(at 82.55 135.89 0)
			(effects
				(font
					(size 1.27 1.27)
				)
				(hide yes)
			)
		)
		(property "Value" "GND"
			(at 82.55 134.62 0)
			(effects
				(font
					(size 1.27 1.27)
				)
			)
		)
		(property "Footprint" ""
			(at 82.55 129.54 0)
			(effects
				(font
					(size 1.27 1.27)
				)
				(hide yes)
			)
		)
		(property "Datasheet" ""
			(at 82.55 129.54 0)
			(effects
				(font
					(size 1.27 1.27)
				)
				(hide yes)
			)
		)
		(property "Description" "Power symbol creates a global label with name \"GND\" , ground"
			(at 82.55 129.54 0)
			(effects
				(font
					(size 1.27 1.27)
				)
				(hide yes)
			)
		)
		(pin "1"
			(uuid "632308cb-ecab-42f6-a335-fcac80a48e9c")
		)
		(instances
			(project "sculpt-zmk"
				(path "/a5934cc4-26db-4c86-8620-c5cd32ec0c39/5ad59400-2dcb-4023-99cc-96de7b2afa6b"
					(reference "#PWR026")
					(unit 1)
				)
			)
		)
	)
	(symbol
		(lib_id "Connector:TestPoint")
		(at 156.21 90.17 90)
		(unit 1)
		(exclude_from_sim no)
		(in_bom yes)
		(on_board yes)
		(dnp no)
		(uuid "2daa7eb7-838d-438f-a918-f28ad51323f5")
		(property "Reference" "TP20"
			(at 148.844 90.17 90)
			(effects
				(font
					(size 1.27 1.27)
				)
			)
		)
		(property "Value" "TestPoint"
			(at 142.24 90.17 90)
			(effects
				(font
					(size 1.27 1.27)
				)
			)
		)
		(property "Footprint" "TestPoint:TestPoint_Pad_D1.0mm"
			(at 156.21 85.09 0)
			(effects
				(font
					(size 1.27 1.27)
				)
				(hide yes)
			)
		)
		(property "Datasheet" "~"
			(at 156.21 85.09 0)
			(effects
				(font
					(size 1.27 1.27)
				)
				(hide yes)
			)
		)
		(property "Description" "test point"
			(at 156.21 90.17 0)
			(effects
				(font
					(size 1.27 1.27)
				)
				(hide yes)
			)
		)
		(pin "1"
			(uuid "1abe7e49-15c9-4b13-8d64-7e147e378db1")
		)
		(instances
			(project "sculpt-zmk"
				(path "/a5934cc4-26db-4c86-8620-c5cd32ec0c39/5ad59400-2dcb-4023-99cc-96de7b2afa6b"
					(reference "TP20")
					(unit 1)
				)
			)
		)
	)
	(symbol
		(lib_id "Connector:TestPoint")
		(at 156.21 77.47 90)
		(mirror x)
		(unit 1)
		(exclude_from_sim no)
		(in_bom yes)
		(on_board yes)
		(dnp no)
		(uuid "318e84ee-c23d-4064-86a5-95439382effd")
		(property "Reference" "TP25"
			(at 148.844 77.47 90)
			(effects
				(font
					(size 1.27 1.27)
				)
			)
		)
		(property "Value" "TestPoint"
			(at 142.24 77.47 90)
			(effects
				(font
					(size 1.27 1.27)
				)
			)
		)
		(property "Footprint" "TestPoint:TestPoint_Pad_D1.0mm"
			(at 156.21 82.55 0)
			(effects
				(font
					(size 1.27 1.27)
				)
				(hide yes)
			)
		)
		(property "Datasheet" "~"
			(at 156.21 82.55 0)
			(effects
				(font
					(size 1.27 1.27)
				)
				(hide yes)
			)
		)
		(property "Description" "test point"
			(at 156.21 77.47 0)
			(effects
				(font
					(size 1.27 1.27)
				)
				(hide yes)
			)
		)
		(pin "1"
			(uuid "b6392766-5f5e-43e7-8513-0110dfd2f117")
		)
		(instances
			(project "sculpt-zmk"
				(path "/a5934cc4-26db-4c86-8620-c5cd32ec0c39/5ad59400-2dcb-4023-99cc-96de7b2afa6b"
					(reference "TP25")
					(unit 1)
				)
			)
		)
	)
	(symbol
		(lib_id "Connector:TestPoint")
		(at 156.21 72.39 90)
		(mirror x)
		(unit 1)
		(exclude_from_sim no)
		(in_bom yes)
		(on_board yes)
		(dnp no)
		(uuid "4331fd5f-dd1b-494a-a617-03b21d1da4aa")
		(property "Reference" "TP27"
			(at 148.844 72.39 90)
			(effects
				(font
					(size 1.27 1.27)
				)
			)
		)
		(property "Value" "TestPoint"
			(at 142.24 72.39 90)
			(effects
				(font
					(size 1.27 1.27)
				)
			)
		)
		(property "Footprint" "TestPoint:TestPoint_Pad_D1.0mm"
			(at 156.21 77.47 0)
			(effects
				(font
					(size 1.27 1.27)
				)
				(hide yes)
			)
		)
		(property "Datasheet" "~"
			(at 156.21 77.47 0)
			(effects
				(font
					(size 1.27 1.27)
				)
				(hide yes)
			)
		)
		(property "Description" "test point"
			(at 156.21 72.39 0)
			(effects
				(font
					(size 1.27 1.27)
				)
				(hide yes)
			)
		)
		(pin "1"
			(uuid "ad1d5e71-fae3-4c54-9bf0-3f4793748fe8")
		)
		(instances
			(project "sculpt-zmk"
				(path "/a5934cc4-26db-4c86-8620-c5cd32ec0c39/5ad59400-2dcb-4023-99cc-96de7b2afa6b"
					(reference "TP27")
					(unit 1)
				)
			)
		)
	)
	(symbol
		(lib_id "Connector:TestPoint")
		(at 156.21 95.25 90)
		(unit 1)
		(exclude_from_sim no)
		(in_bom yes)
		(on_board yes)
		(dnp no)
		(uuid "4c145a53-f39e-4362-970d-00fff64e9efe")
		(property "Reference" "TP18"
			(at 148.844 95.25 90)
			(effects
				(font
					(size 1.27 1.27)
				)
			)
		)
		(property "Value" "TestPoint"
			(at 142.24 95.25 90)
			(effects
				(font
					(size 1.27 1.27)
				)
			)
		)
		(property "Footprint" "TestPoint:TestPoint_Pad_D1.0mm"
			(at 156.21 90.17 0)
			(effects
				(font
					(size 1.27 1.27)
				)
				(hide yes)
			)
		)
		(property "Datasheet" "~"
			(at 156.21 90.17 0)
			(effects
				(font
					(size 1.27 1.27)
				)
				(hide yes)
			)
		)
		(property "Description" "test point"
			(at 156.21 95.25 0)
			(effects
				(font
					(size 1.27 1.27)
				)
				(hide yes)
			)
		)
		(pin "1"
			(uuid "1d6aa7ae-260e-420f-96dd-6060df32e9c8")
		)
		(instances
			(project "sculpt-zmk"
				(path "/a5934cc4-26db-4c86-8620-c5cd32ec0c39/5ad59400-2dcb-4023-99cc-96de7b2afa6b"
					(reference "TP18")
					(unit 1)
				)
			)
		)
	)
	(symbol
		(lib_id "Connector:TestPoint")
		(at 156.21 113.03 90)
		(mirror x)
		(unit 1)
		(exclude_from_sim no)
		(in_bom yes)
		(on_board yes)
		(dnp no)
		(uuid "52e2df92-84e0-42a7-82f0-801ac0c4ea5b")
		(property "Reference" "TP11"
			(at 148.844 113.03 90)
			(effects
				(font
					(size 1.27 1.27)
				)
			)
		)
		(property "Value" "TestPoint"
			(at 142.24 113.03 90)
			(effects
				(font
					(size 1.27 1.27)
				)
			)
		)
		(property "Footprint" "TestPoint:TestPoint_Pad_D1.0mm"
			(at 156.21 118.11 0)
			(effects
				(font
					(size 1.27 1.27)
				)
				(hide yes)
			)
		)
		(property "Datasheet" "~"
			(at 156.21 118.11 0)
			(effects
				(font
					(size 1.27 1.27)
				)
				(hide yes)
			)
		)
		(property "Description" "test point"
			(at 156.21 113.03 0)
			(effects
				(font
					(size 1.27 1.27)
				)
				(hide yes)
			)
		)
		(pin "1"
			(uuid "3bbd0e5b-8417-470f-a5b3-7b2a1f8624b0")
		)
		(instances
			(project "sculpt-zmk"
				(path "/a5934cc4-26db-4c86-8620-c5cd32ec0c39/5ad59400-2dcb-4023-99cc-96de7b2afa6b"
					(reference "TP11")
					(unit 1)
				)
			)
		)
	)
	(symbol
		(lib_id "Connector:TestPoint")
		(at 156.21 59.69 90)
		(mirror x)
		(unit 1)
		(exclude_from_sim no)
		(in_bom yes)
		(on_board yes)
		(dnp no)
		(uuid "5b9cc486-902b-45f9-ae8f-b9c4e48886fc")
		(property "Reference" "TP32"
			(at 148.844 59.69 90)
			(effects
				(font
					(size 1.27 1.27)
				)
			)
		)
		(property "Value" "TestPoint"
			(at 142.24 59.69 90)
			(effects
				(font
					(size 1.27 1.27)
				)
			)
		)
		(property "Footprint" "TestPoint:TestPoint_Pad_D1.0mm"
			(at 156.21 64.77 0)
			(effects
				(font
					(size 1.27 1.27)
				)
				(hide yes)
			)
		)
		(property "Datasheet" "~"
			(at 156.21 64.77 0)
			(effects
				(font
					(size 1.27 1.27)
				)
				(hide yes)
			)
		)
		(property "Description" "test point"
			(at 156.21 59.69 0)
			(effects
				(font
					(size 1.27 1.27)
				)
				(hide yes)
			)
		)
		(pin "1"
			(uuid "64b71f87-8fea-4d07-8f48-afc9f542d5b1")
		)
		(instances
			(project "sculpt-zmk"
				(path "/a5934cc4-26db-4c86-8620-c5cd32ec0c39/5ad59400-2dcb-4023-99cc-96de7b2afa6b"
					(reference "TP32")
					(unit 1)
				)
			)
		)
	)
	(symbol
		(lib_id "Connector:TestPoint")
		(at 156.21 115.57 90)
		(unit 1)
		(exclude_from_sim no)
		(in_bom yes)
		(on_board yes)
		(dnp no)
		(uuid "5e26675a-1dad-441d-bb03-8663413a7a28")
		(property "Reference" "TP10"
			(at 148.844 115.57 90)
			(effects
				(font
					(size 1.27 1.27)
				)
			)
		)
		(property "Value" "TestPoint"
			(at 142.24 115.57 90)
			(effects
				(font
					(size 1.27 1.27)
				)
			)
		)
		(property "Footprint" "TestPoint:TestPoint_Pad_D1.0mm"
			(at 156.21 110.49 0)
			(effects
				(font
					(size 1.27 1.27)
				)
				(hide yes)
			)
		)
		(property "Datasheet" "~"
			(at 156.21 110.49 0)
			(effects
				(font
					(size 1.27 1.27)
				)
				(hide yes)
			)
		)
		(property "Description" "test point"
			(at 156.21 115.57 0)
			(effects
				(font
					(size 1.27 1.27)
				)
				(hide yes)
			)
		)
		(pin "1"
			(uuid "a3745867-8ffb-4d04-860c-692c6499a8f4")
		)
		(instances
			(project "sculpt-zmk"
				(path "/a5934cc4-26db-4c86-8620-c5cd32ec0c39/5ad59400-2dcb-4023-99cc-96de7b2afa6b"
					(reference "TP10")
					(unit 1)
				)
			)
		)
	)
	(symbol
		(lib_id "Connector:TestPoint")
		(at 156.21 87.63 90)
		(unit 1)
		(exclude_from_sim no)
		(in_bom yes)
		(on_board yes)
		(dnp no)
		(uuid "62d1455e-90db-4dd7-8e3f-3c153f28070e")
		(property "Reference" "TP21"
			(at 148.844 87.63 90)
			(effects
				(font
					(size 1.27 1.27)
				)
			)
		)
		(property "Value" "TestPoint"
			(at 142.24 87.63 90)
			(effects
				(font
					(size 1.27 1.27)
				)
			)
		)
		(property "Footprint" "TestPoint:TestPoint_Pad_D1.0mm"
			(at 156.21 82.55 0)
			(effects
				(font
					(size 1.27 1.27)
				)
				(hide yes)
			)
		)
		(property "Datasheet" "~"
			(at 156.21 82.55 0)
			(effects
				(font
					(size 1.27 1.27)
				)
				(hide yes)
			)
		)
		(property "Description" "test point"
			(at 156.21 87.63 0)
			(effects
				(font
					(size 1.27 1.27)
				)
				(hide yes)
			)
		)
		(pin "1"
			(uuid "d2758e8b-82a4-4614-afec-0e286c7f2b35")
		)
		(instances
			(project "sculpt-zmk"
				(path "/a5934cc4-26db-4c86-8620-c5cd32ec0c39/5ad59400-2dcb-4023-99cc-96de7b2afa6b"
					(reference "TP21")
					(unit 1)
				)
			)
		)
	)
	(symbol
		(lib_id "Connector:TestPoint")
		(at 156.21 125.73 90)
		(unit 1)
		(exclude_from_sim no)
		(in_bom yes)
		(on_board yes)
		(dnp no)
		(uuid "710b1bde-8e6d-4b47-8996-6437d7d9acea")
		(property "Reference" "TP6"
			(at 148.844 125.73 90)
			(effects
				(font
					(size 1.27 1.27)
				)
			)
		)
		(property "Value" "TestPoint"
			(at 142.24 125.73 90)
			(effects
				(font
					(size 1.27 1.27)
				)
			)
		)
		(property "Footprint" "TestPoint:TestPoint_Pad_D1.0mm"
			(at 156.21 120.65 0)
			(effects
				(font
					(size 1.27 1.27)
				)
				(hide yes)
			)
		)
		(property "Datasheet" "~"
			(at 156.21 120.65 0)
			(effects
				(font
					(size 1.27 1.27)
				)
				(hide yes)
			)
		)
		(property "Description" "test point"
			(at 156.21 125.73 0)
			(effects
				(font
					(size 1.27 1.27)
				)
				(hide yes)
			)
		)
		(pin "1"
			(uuid "15c6283f-51fd-4d52-abed-154d573ede35")
		)
		(instances
			(project "sculpt-zmk"
				(path "/a5934cc4-26db-4c86-8620-c5cd32ec0c39/5ad59400-2dcb-4023-99cc-96de7b2afa6b"
					(reference "TP6")
					(unit 1)
				)
			)
		)
	)
	(symbol
		(lib_id "Connector:TestPoint")
		(at 156.21 82.55 90)
		(mirror x)
		(unit 1)
		(exclude_from_sim no)
		(in_bom yes)
		(on_board yes)
		(dnp no)
		(uuid "7193692f-50ab-4478-86d2-6f73539e0cc6")
		(property "Reference" "TP23"
			(at 148.844 82.55 90)
			(effects
				(font
					(size 1.27 1.27)
				)
			)
		)
		(property "Value" "TestPoint"
			(at 142.24 82.55 90)
			(effects
				(font
					(size 1.27 1.27)
				)
			)
		)
		(property "Footprint" "TestPoint:TestPoint_Pad_D1.0mm"
			(at 156.21 87.63 0)
			(effects
				(font
					(size 1.27 1.27)
				)
				(hide yes)
			)
		)
		(property "Datasheet" "~"
			(at 156.21 87.63 0)
			(effects
				(font
					(size 1.27 1.27)
				)
				(hide yes)
			)
		)
		(property "Description" "test point"
			(at 156.21 82.55 0)
			(effects
				(font
					(size 1.27 1.27)
				)
				(hide yes)
			)
		)
		(pin "1"
			(uuid "04180263-7a62-4ecd-90e8-03d84f8fc796")
		)
		(instances
			(project "sculpt-zmk"
				(path "/a5934cc4-26db-4c86-8620-c5cd32ec0c39/5ad59400-2dcb-4023-99cc-96de7b2afa6b"
					(reference "TP23")
					(unit 1)
				)
			)
		)
	)
	(symbol
		(lib_id "Connector:TestPoint")
		(at 156.21 105.41 90)
		(mirror x)
		(unit 1)
		(exclude_from_sim no)
		(in_bom yes)
		(on_board yes)
		(dnp no)
		(uuid "85d5ccce-1cb9-4db3-8f23-95cb24dd47ee")
		(property "Reference" "TP14"
			(at 148.844 105.41 90)
			(effects
				(font
					(size 1.27 1.27)
				)
			)
		)
		(property "Value" "TestPoint"
			(at 142.24 105.41 90)
			(effects
				(font
					(size 1.27 1.27)
				)
			)
		)
		(property "Footprint" "TestPoint:TestPoint_Pad_D1.0mm"
			(at 156.21 110.49 0)
			(effects
				(font
					(size 1.27 1.27)
				)
				(hide yes)
			)
		)
		(property "Datasheet" "~"
			(at 156.21 110.49 0)
			(effects
				(font
					(size 1.27 1.27)
				)
				(hide yes)
			)
		)
		(property "Description" "test point"
			(at 156.21 105.41 0)
			(effects
				(font
					(size 1.27 1.27)
				)
				(hide yes)
			)
		)
		(pin "1"
			(uuid "f8cd33f3-8811-45fd-b112-2f9be5266a69")
		)
		(instances
			(project "sculpt-zmk"
				(path "/a5934cc4-26db-4c86-8620-c5cd32ec0c39/5ad59400-2dcb-4023-99cc-96de7b2afa6b"
					(reference "TP14")
					(unit 1)
				)
			)
		)
	)
	(symbol
		(lib_id "Connector:TestPoint")
		(at 156.21 97.79 90)
		(unit 1)
		(exclude_from_sim no)
		(in_bom yes)
		(on_board yes)
		(dnp no)
		(uuid "89d33c9f-88ee-4d3a-bbb6-718070668f92")
		(property "Reference" "TP17"
			(at 148.844 97.79 90)
			(effects
				(font
					(size 1.27 1.27)
				)
			)
		)
		(property "Value" "TestPoint"
			(at 142.24 97.79 90)
			(effects
				(font
					(size 1.27 1.27)
				)
			)
		)
		(property "Footprint" "TestPoint:TestPoint_Pad_D1.0mm"
			(at 156.21 92.71 0)
			(effects
				(font
					(size 1.27 1.27)
				)
				(hide yes)
			)
		)
		(property "Datasheet" "~"
			(at 156.21 92.71 0)
			(effects
				(font
					(size 1.27 1.27)
				)
				(hide yes)
			)
		)
		(property "Description" "test point"
			(at 156.21 97.79 0)
			(effects
				(font
					(size 1.27 1.27)
				)
				(hide yes)
			)
		)
		(pin "1"
			(uuid "21348797-b23c-4191-9b7e-44cafb954a04")
		)
		(instances
			(project "sculpt-zmk"
				(path "/a5934cc4-26db-4c86-8620-c5cd32ec0c39/5ad59400-2dcb-4023-99cc-96de7b2afa6b"
					(reference "TP17")
					(unit 1)
				)
			)
		)
	)
	(symbol
		(lib_id "Connector:TestPoint")
		(at 156.21 69.85 90)
		(mirror x)
		(unit 1)
		(exclude_from_sim no)
		(in_bom yes)
		(on_board yes)
		(dnp no)
		(uuid "95ca9f5a-b138-49b2-8a73-5ffba6c68af4")
		(property "Reference" "TP28"
			(at 148.844 69.85 90)
			(effects
				(font
					(size 1.27 1.27)
				)
			)
		)
		(property "Value" "TestPoint"
			(at 142.24 69.85 90)
			(effects
				(font
					(size 1.27 1.27)
				)
			)
		)
		(property "Footprint" "TestPoint:TestPoint_Pad_D1.0mm"
			(at 156.21 74.93 0)
			(effects
				(font
					(size 1.27 1.27)
				)
				(hide yes)
			)
		)
		(property "Datasheet" "~"
			(at 156.21 74.93 0)
			(effects
				(font
					(size 1.27 1.27)
				)
				(hide yes)
			)
		)
		(property "Description" "test point"
			(at 156.21 69.85 0)
			(effects
				(font
					(size 1.27 1.27)
				)
				(hide yes)
			)
		)
		(pin "1"
			(uuid "645f0261-1ac8-46b6-a240-2b8263bac023")
		)
		(instances
			(project "sculpt-zmk"
				(path "/a5934cc4-26db-4c86-8620-c5cd32ec0c39/5ad59400-2dcb-4023-99cc-96de7b2afa6b"
					(reference "TP28")
					(unit 1)
				)
			)
		)
	)
	(symbol
		(lib_id "Connector:TestPoint")
		(at 156.21 118.11 90)
		(unit 1)
		(exclude_from_sim no)
		(in_bom yes)
		(on_board yes)
		(dnp no)
		(uuid "99bd0194-59a6-4de5-8909-2727b685da51")
		(property "Reference" "TP9"
			(at 148.844 118.11 90)
			(effects
				(font
					(size 1.27 1.27)
				)
			)
		)
		(property "Value" "TestPoint"
			(at 142.24 118.11 90)
			(effects
				(font
					(size 1.27 1.27)
				)
			)
		)
		(property "Footprint" "TestPoint:TestPoint_Pad_D1.0mm"
			(at 156.21 113.03 0)
			(effects
				(font
					(size 1.27 1.27)
				)
				(hide yes)
			)
		)
		(property "Datasheet" "~"
			(at 156.21 113.03 0)
			(effects
				(font
					(size 1.27 1.27)
				)
				(hide yes)
			)
		)
		(property "Description" "test point"
			(at 156.21 118.11 0)
			(effects
				(font
					(size 1.27 1.27)
				)
				(hide yes)
			)
		)
		(pin "1"
			(uuid "b8139f28-9ced-44b8-be19-706d10351765")
		)
		(instances
			(project "sculpt-zmk"
				(path "/a5934cc4-26db-4c86-8620-c5cd32ec0c39/5ad59400-2dcb-4023-99cc-96de7b2afa6b"
					(reference "TP9")
					(unit 1)
				)
			)
		)
	)
	(symbol
		(lib_id "Connector:TestPoint")
		(at 156.21 128.27 90)
		(unit 1)
		(exclude_from_sim no)
		(in_bom yes)
		(on_board yes)
		(dnp no)
		(uuid "9c5b6f40-c2c0-49ef-8866-110a4845c87a")
		(property "Reference" "TP5"
			(at 148.844 128.27 90)
			(effects
				(font
					(size 1.27 1.27)
				)
			)
		)
		(property "Value" "TestPoint"
			(at 142.24 128.27 90)
			(effects
				(font
					(size 1.27 1.27)
				)
			)
		)
		(property "Footprint" "TestPoint:TestPoint_Pad_D1.0mm"
			(at 156.21 123.19 0)
			(effects
				(font
					(size 1.27 1.27)
				)
				(hide yes)
			)
		)
		(property "Datasheet" "~"
			(at 156.21 123.19 0)
			(effects
				(font
					(size 1.27 1.27)
				)
				(hide yes)
			)
		)
		(property "Description" "test point"
			(at 156.21 128.27 0)
			(effects
				(font
					(size 1.27 1.27)
				)
				(hide yes)
			)
		)
		(pin "1"
			(uuid "732864c9-0d3b-4e4c-bfbb-186947fa5773")
		)
		(instances
			(project "sculpt-zmk"
				(path "/a5934cc4-26db-4c86-8620-c5cd32ec0c39/5ad59400-2dcb-4023-99cc-96de7b2afa6b"
					(reference "TP5")
					(unit 1)
				)
			)
		)
	)
	(symbol
		(lib_id "Connector:TestPoint")
		(at 156.21 107.95 90)
		(mirror x)
		(unit 1)
		(exclude_from_sim no)
		(in_bom yes)
		(on_board yes)
		(dnp no)
		(uuid "a04ac154-e8b8-4190-8164-a14919da4ec8")
		(property "Reference" "TP13"
			(at 148.844 107.95 90)
			(effects
				(font
					(size 1.27 1.27)
				)
			)
		)
		(property "Value" "TestPoint"
			(at 142.24 107.95 90)
			(effects
				(font
					(size 1.27 1.27)
				)
			)
		)
		(property "Footprint" "TestPoint:TestPoint_Pad_D1.0mm"
			(at 156.21 113.03 0)
			(effects
				(font
					(size 1.27 1.27)
				)
				(hide yes)
			)
		)
		(property "Datasheet" "~"
			(at 156.21 113.03 0)
			(effects
				(font
					(size 1.27 1.27)
				)
				(hide yes)
			)
		)
		(property "Description" "test point"
			(at 156.21 107.95 0)
			(effects
				(font
					(size 1.27 1.27)
				)
				(hide yes)
			)
		)
		(pin "1"
			(uuid "6d7dee18-f328-4bbf-8ad4-91058a7ed06b")
		)
		(instances
			(project "sculpt-zmk"
				(path "/a5934cc4-26db-4c86-8620-c5cd32ec0c39/5ad59400-2dcb-4023-99cc-96de7b2afa6b"
					(reference "TP13")
					(unit 1)
				)
			)
		)
	)
	(symbol
		(lib_id "Connector:TestPoint")
		(at 156.21 123.19 90)
		(unit 1)
		(exclude_from_sim no)
		(in_bom yes)
		(on_board yes)
		(dnp no)
		(uuid "abd4e52e-4242-42b9-b011-780a70851c0c")
		(property "Reference" "TP7"
			(at 148.844 123.19 90)
			(effects
				(font
					(size 1.27 1.27)
				)
			)
		)
		(property "Value" "TestPoint"
			(at 142.24 123.19 90)
			(effects
				(font
					(size 1.27 1.27)
				)
			)
		)
		(property "Footprint" "TestPoint:TestPoint_Pad_D1.0mm"
			(at 156.21 118.11 0)
			(effects
				(font
					(size 1.27 1.27)
				)
				(hide yes)
			)
		)
		(property "Datasheet" "~"
			(at 156.21 118.11 0)
			(effects
				(font
					(size 1.27 1.27)
				)
				(hide yes)
			)
		)
		(property "Description" "test point"
			(at 156.21 123.19 0)
			(effects
				(font
					(size 1.27 1.27)
				)
				(hide yes)
			)
		)
		(pin "1"
			(uuid "2504150a-f460-4501-b6ef-1bcdfc02fe05")
		)
		(instances
			(project "sculpt-zmk"
				(path "/a5934cc4-26db-4c86-8620-c5cd32ec0c39/5ad59400-2dcb-4023-99cc-96de7b2afa6b"
					(reference "TP7")
					(unit 1)
				)
			)
		)
	)
	(symbol
		(lib_id "Connector:TestPoint")
		(at 156.21 102.87 90)
		(mirror x)
		(unit 1)
		(exclude_from_sim no)
		(in_bom yes)
		(on_board yes)
		(dnp no)
		(uuid "aec6fff3-f01a-495d-9d50-b2bf0296af85")
		(property "Reference" "TP15"
			(at 148.844 102.87 90)
			(effects
				(font
					(size 1.27 1.27)
				)
			)
		)
		(property "Value" "TestPoint"
			(at 142.24 102.87 90)
			(effects
				(font
					(size 1.27 1.27)
				)
			)
		)
		(property "Footprint" "TestPoint:TestPoint_Pad_D1.0mm"
			(at 156.21 107.95 0)
			(effects
				(font
					(size 1.27 1.27)
				)
				(hide yes)
			)
		)
		(property "Datasheet" "~"
			(at 156.21 107.95 0)
			(effects
				(font
					(size 1.27 1.27)
				)
				(hide yes)
			)
		)
		(property "Description" "test point"
			(at 156.21 102.87 0)
			(effects
				(font
					(size 1.27 1.27)
				)
				(hide yes)
			)
		)
		(pin "1"
			(uuid "27c40b79-e650-472f-92c1-e86047190f0f")
		)
		(instances
			(project "sculpt-zmk"
				(path "/a5934cc4-26db-4c86-8620-c5cd32ec0c39/5ad59400-2dcb-4023-99cc-96de7b2afa6b"
					(reference "TP15")
					(unit 1)
				)
			)
		)
	)
	(symbol
		(lib_id "Connector:TestPoint")
		(at 156.21 64.77 90)
		(unit 1)
		(exclude_from_sim no)
		(in_bom yes)
		(on_board yes)
		(dnp no)
		(uuid "bee90e77-6e6e-4681-8394-75fdc87a6faf")
		(property "Reference" "TP30"
			(at 148.844 64.77 90)
			(effects
				(font
					(size 1.27 1.27)
				)
			)
		)
		(property "Value" "TestPoint"
			(at 142.24 64.77 90)
			(effects
				(font
					(size 1.27 1.27)
				)
			)
		)
		(property "Footprint" "TestPoint:TestPoint_Pad_D1.0mm"
			(at 156.21 59.69 0)
			(effects
				(font
					(size 1.27 1.27)
				)
				(hide yes)
			)
		)
		(property "Datasheet" "~"
			(at 156.21 59.69 0)
			(effects
				(font
					(size 1.27 1.27)
				)
				(hide yes)
			)
		)
		(property "Description" "test point"
			(at 156.21 64.77 0)
			(effects
				(font
					(size 1.27 1.27)
				)
				(hide yes)
			)
		)
		(pin "1"
			(uuid "076bc454-2ca4-4809-b702-bbb3bfe5f388")
		)
		(instances
			(project "sculpt-zmk"
				(path "/a5934cc4-26db-4c86-8620-c5cd32ec0c39/5ad59400-2dcb-4023-99cc-96de7b2afa6b"
					(reference "TP30")
					(unit 1)
				)
			)
		)
	)
	(symbol
		(lib_id "Connector:TestPoint")
		(at 156.21 100.33 90)
		(mirror x)
		(unit 1)
		(exclude_from_sim no)
		(in_bom yes)
		(on_board yes)
		(dnp no)
		(uuid "cee31551-ab06-4b88-bf94-245c6fb29ff6")
		(property "Reference" "TP16"
			(at 148.844 100.33 90)
			(effects
				(font
					(size 1.27 1.27)
				)
			)
		)
		(property "Value" "TestPoint"
			(at 142.24 100.33 90)
			(effects
				(font
					(size 1.27 1.27)
				)
			)
		)
		(property "Footprint" "TestPoint:TestPoint_Pad_D1.0mm"
			(at 156.21 105.41 0)
			(effects
				(font
					(size 1.27 1.27)
				)
				(hide yes)
			)
		)
		(property "Datasheet" "~"
			(at 156.21 105.41 0)
			(effects
				(font
					(size 1.27 1.27)
				)
				(hide yes)
			)
		)
		(property "Description" "test point"
			(at 156.21 100.33 0)
			(effects
				(font
					(size 1.27 1.27)
				)
				(hide yes)
			)
		)
		(pin "1"
			(uuid "4c5647ba-6151-4697-a4ed-e339fa747348")
		)
		(instances
			(project "sculpt-zmk"
				(path "/a5934cc4-26db-4c86-8620-c5cd32ec0c39/5ad59400-2dcb-4023-99cc-96de7b2afa6b"
					(reference "TP16")
					(unit 1)
				)
			)
		)
	)
	(symbol
		(lib_id "Connector:TestPoint")
		(at 156.21 67.31 90)
		(unit 1)
		(exclude_from_sim no)
		(in_bom yes)
		(on_board yes)
		(dnp no)
		(uuid "d72e43a2-0d35-4254-aaa7-d6cd496510e8")
		(property "Reference" "TP29"
			(at 148.844 67.31 90)
			(effects
				(font
					(size 1.27 1.27)
				)
			)
		)
		(property "Value" "TestPoint"
			(at 142.24 67.31 90)
			(effects
				(font
					(size 1.27 1.27)
				)
			)
		)
		(property "Footprint" "TestPoint:TestPoint_Pad_D1.0mm"
			(at 156.21 62.23 0)
			(effects
				(font
					(size 1.27 1.27)
				)
				(hide yes)
			)
		)
		(property "Datasheet" "~"
			(at 156.21 62.23 0)
			(effects
				(font
					(size 1.27 1.27)
				)
				(hide yes)
			)
		)
		(property "Description" "test point"
			(at 156.21 67.31 0)
			(effects
				(font
					(size 1.27 1.27)
				)
				(hide yes)
			)
		)
		(pin "1"
			(uuid "3dfcffae-37b4-4d18-b961-5b72fe05365a")
		)
		(instances
			(project "sculpt-zmk"
				(path "/a5934cc4-26db-4c86-8620-c5cd32ec0c39/5ad59400-2dcb-4023-99cc-96de7b2afa6b"
					(reference "TP29")
					(unit 1)
				)
			)
		)
	)
	(symbol
		(lib_id "Connector:TestPoint")
		(at 156.21 120.65 90)
		(unit 1)
		(exclude_from_sim no)
		(in_bom yes)
		(on_board yes)
		(dnp no)
		(uuid "e232d18a-58ea-4e30-9f0b-44e9f589a785")
		(property "Reference" "TP8"
			(at 148.844 120.65 90)
			(effects
				(font
					(size 1.27 1.27)
				)
			)
		)
		(property "Value" "TestPoint"
			(at 142.24 120.65 90)
			(effects
				(font
					(size 1.27 1.27)
				)
			)
		)
		(property "Footprint" "TestPoint:TestPoint_Pad_D1.0mm"
			(at 156.21 115.57 0)
			(effects
				(font
					(size 1.27 1.27)
				)
				(hide yes)
			)
		)
		(property "Datasheet" "~"
			(at 156.21 115.57 0)
			(effects
				(font
					(size 1.27 1.27)
				)
				(hide yes)
			)
		)
		(property "Description" "test point"
			(at 156.21 120.65 0)
			(effects
				(font
					(size 1.27 1.27)
				)
				(hide yes)
			)
		)
		(pin "1"
			(uuid "27caffd0-b4ad-436e-8616-6fc338fe8d1c")
		)
		(instances
			(project "sculpt-zmk"
				(path "/a5934cc4-26db-4c86-8620-c5cd32ec0c39/5ad59400-2dcb-4023-99cc-96de7b2afa6b"
					(reference "TP8")
					(unit 1)
				)
			)
		)
	)
	(symbol
		(lib_id "Connector:TestPoint")
		(at 156.21 57.15 90)
		(mirror x)
		(unit 1)
		(exclude_from_sim no)
		(in_bom yes)
		(on_board yes)
		(dnp no)
		(uuid "ecaeeca7-80f4-474f-a966-96956fb5a6c1")
		(property "Reference" "TP33"
			(at 148.844 57.15 90)
			(effects
				(font
					(size 1.27 1.27)
				)
			)
		)
		(property "Value" "TestPoint"
			(at 142.24 57.15 90)
			(effects
				(font
					(size 1.27 1.27)
				)
			)
		)
		(property "Footprint" "TestPoint:TestPoint_Pad_D1.0mm"
			(at 156.21 62.23 0)
			(effects
				(font
					(size 1.27 1.27)
				)
				(hide yes)
			)
		)
		(property "Datasheet" "~"
			(at 156.21 62.23 0)
			(effects
				(font
					(size 1.27 1.27)
				)
				(hide yes)
			)
		)
		(property "Description" "test point"
			(at 156.21 57.15 0)
			(effects
				(font
					(size 1.27 1.27)
				)
				(hide yes)
			)
		)
		(pin "1"
			(uuid "e70cec15-e2ce-4f76-a14d-d86f669d9693")
		)
		(instances
			(project "sculpt-zmk"
				(path "/a5934cc4-26db-4c86-8620-c5cd32ec0c39/5ad59400-2dcb-4023-99cc-96de7b2afa6b"
					(reference "TP33")
					(unit 1)
				)
			)
		)
	)
	(symbol
		(lib_id "Connector:TestPoint")
		(at 156.21 92.71 90)
		(unit 1)
		(exclude_from_sim no)
		(in_bom yes)
		(on_board yes)
		(dnp no)
		(uuid "efd361ce-b2f1-402e-8dc6-6802cc5d8947")
		(property "Reference" "TP19"
			(at 148.844 92.71 90)
			(effects
				(font
					(size 1.27 1.27)
				)
			)
		)
		(property "Value" "TestPoint"
			(at 142.24 92.71 90)
			(effects
				(font
					(size 1.27 1.27)
				)
			)
		)
		(property "Footprint" "TestPoint:TestPoint_Pad_D1.0mm"
			(at 156.21 87.63 0)
			(effects
				(font
					(size 1.27 1.27)
				)
				(hide yes)
			)
		)
		(property "Datasheet" "~"
			(at 156.21 87.63 0)
			(effects
				(font
					(size 1.27 1.27)
				)
				(hide yes)
			)
		)
		(property "Description" "test point"
			(at 156.21 92.71 0)
			(effects
				(font
					(size 1.27 1.27)
				)
				(hide yes)
			)
		)
		(pin "1"
			(uuid "c4b4c986-4b4e-43be-9695-01d82e439809")
		)
		(instances
			(project "sculpt-zmk"
				(path "/a5934cc4-26db-4c86-8620-c5cd32ec0c39/5ad59400-2dcb-4023-99cc-96de7b2afa6b"
					(reference "TP19")
					(unit 1)
				)
			)
		)
	)
	(symbol
		(lib_id "Connector:Conn_01x30_Pin")
		(at 67.31 90.17 0)
		(unit 1)
		(exclude_from_sim no)
		(in_bom yes)
		(on_board yes)
		(dnp no)
		(uuid "f16ea603-5cf4-41a8-a2d6-102f4da97390")
		(property "Reference" "J3"
			(at 67.945 49.53 0)
			(effects
				(font
					(size 1.27 1.27)
				)
			)
		)
		(property "Value" "Conn_01x30_Pin"
			(at 67.945 52.07 0)
			(effects
				(font
					(size 1.27 1.27)
				)
			)
		)
		(property "Footprint" "Connector_FFC-FPC:FFC3B07-30-T"
			(at 67.31 90.17 0)
			(effects
				(font
					(size 1.27 1.27)
				)
				(hide yes)
			)
		)
		(property "Datasheet" "~"
			(at 67.31 90.17 0)
			(effects
				(font
					(size 1.27 1.27)
				)
				(hide yes)
			)
		)
		(property "Description" "Generic connector, single row, 01x30, script generated"
			(at 67.31 90.17 0)
			(effects
				(font
					(size 1.27 1.27)
				)
				(hide yes)
			)
		)
		(pin "24"
			(uuid "5158d493-7b4f-4c44-a39d-83acd9872dca")
		)
		(pin "25"
			(uuid "b1c44a1c-c60d-46f8-8684-d869b7504c25")
		)
		(pin "26"
			(uuid "96a485ff-c478-47b6-b2b5-48ae4f1a72aa")
		)
		(pin "27"
			(uuid "3f4c4cbd-be9d-4d7c-8537-94b5ab86ba87")
		)
		(pin "28"
			(uuid "f4fd8dcf-3fe9-4d5d-a51e-1db3dd2c4598")
		)
		(pin "29"
			(uuid "750edbc7-8842-4277-8a7e-c08c345f3494")
		)
		(pin "3"
			(uuid "1ea51c03-33d8-4ac9-9183-b7a06178ffdc")
		)
		(pin "30"
			(uuid "5b810da8-2e80-4ff6-b60b-0538a39f0706")
		)
		(pin "4"
			(uuid "ec653e9e-a014-4aa8-9848-1b7a581cebd5")
		)
		(pin "5"
			(uuid "347fecd9-03ad-4d89-a700-0efa279cec40")
		)
		(pin "6"
			(uuid "1fc36bab-4625-4a8b-8f0e-faa086f1ff31")
		)
		(pin "7"
			(uuid "86b0cb23-a516-4a92-8767-2c1a01495a3c")
		)
		(pin "8"
			(uuid "c0ff86de-9c53-4de2-99d3-1895f806d6ff")
		)
		(pin "9"
			(uuid "64a51434-30e0-4b97-af8d-9f7371ff0134")
		)
		(pin "1"
			(uuid "0c93b797-b051-4f41-a2e2-1afc338bcbb7")
		)
		(pin "10"
			(uuid "3df351b8-f9ac-4ce1-8fe5-683a9172ac27")
		)
		(pin "11"
			(uuid "b570bb28-d608-45e9-8374-b0b01a7847bb")
		)
		(pin "12"
			(uuid "391a68a6-cb9e-41a9-a30b-7b2ef9455b4c")
		)
		(pin "13"
			(uuid "14e55f8d-c2f9-4daa-9b2a-fa08cdcef19e")
		)
		(pin "14"
			(uuid "0087d627-4aec-46ce-bcf7-1ebfc5c24454")
		)
		(pin "15"
			(uuid "e7f894d0-652f-4d51-90df-ff164ff9dfaf")
		)
		(pin "16"
			(uuid "015d90ca-a7d9-48c0-943e-ef147e9ac653")
		)
		(pin "17"
			(uuid "42592cfd-dad7-4b48-927b-ffa7bf0ed771")
		)
		(pin "18"
			(uuid "cc6bb6b7-82e4-41d3-b443-4d4596a85dc8")
		)
		(pin "19"
			(uuid "2dc4d91c-0eb9-47d1-97e3-e4033e3e2a82")
		)
		(pin "2"
			(uuid "27f3922d-3c55-4430-a128-7b1a30c87cab")
		)
		(pin "20"
			(uuid "2c058c8d-02e2-41ba-99a4-45c2256233b3")
		)
		(pin "21"
			(uuid "12cbf1a5-1fcc-4e73-9fed-fd099b275c8d")
		)
		(pin "22"
			(uuid "5ff28623-8624-4e5e-8455-17b7d8fc342e")
		)
		(pin "23"
			(uuid "09f5a52b-ba31-474a-849c-528ce0aaa7c2")
		)
		(instances
			(project "sculpt-zmk"
				(path "/a5934cc4-26db-4c86-8620-c5cd32ec0c39/5ad59400-2dcb-4023-99cc-96de7b2afa6b"
					(reference "J3")
					(unit 1)
				)
			)
		)
	)
	(symbol
		(lib_id "Connector:TestPoint")
		(at 156.21 85.09 90)
		(unit 1)
		(exclude_from_sim no)
		(in_bom yes)
		(on_board yes)
		(dnp no)
		(uuid "f4acb8c7-e166-4f40-b9ac-d574c01c8a6d")
		(property "Reference" "TP22"
			(at 148.844 85.09 90)
			(effects
				(font
					(size 1.27 1.27)
				)
			)
		)
		(property "Value" "TestPoint"
			(at 142.24 85.09 90)
			(effects
				(font
					(size 1.27 1.27)
				)
			)
		)
		(property "Footprint" "TestPoint:TestPoint_Pad_D1.0mm"
			(at 156.21 80.01 0)
			(effects
				(font
					(size 1.27 1.27)
				)
				(hide yes)
			)
		)
		(property "Datasheet" "~"
			(at 156.21 80.01 0)
			(effects
				(font
					(size 1.27 1.27)
				)
				(hide yes)
			)
		)
		(property "Description" "test point"
			(at 156.21 85.09 0)
			(effects
				(font
					(size 1.27 1.27)
				)
				(hide yes)
			)
		)
		(pin "1"
			(uuid "1bc1abb7-cd01-409b-8eae-36c882974158")
		)
		(instances
			(project "sculpt-zmk"
				(path "/a5934cc4-26db-4c86-8620-c5cd32ec0c39/5ad59400-2dcb-4023-99cc-96de7b2afa6b"
					(reference "TP22")
					(unit 1)
				)
			)
		)
	)
	(symbol
		(lib_id "Connector:TestPoint")
		(at 156.21 74.93 90)
		(mirror x)
		(unit 1)
		(exclude_from_sim no)
		(in_bom yes)
		(on_board yes)
		(dnp no)
		(uuid "f77b41fa-3061-4d21-890a-93e4ca1cde9d")
		(property "Reference" "TP26"
			(at 148.844 74.93 90)
			(effects
				(font
					(size 1.27 1.27)
				)
			)
		)
		(property "Value" "TestPoint"
			(at 142.24 74.93 90)
			(effects
				(font
					(size 1.27 1.27)
				)
			)
		)
		(property "Footprint" "TestPoint:TestPoint_Pad_D1.0mm"
			(at 156.21 80.01 0)
			(effects
				(font
					(size 1.27 1.27)
				)
				(hide yes)
			)
		)
		(property "Datasheet" "~"
			(at 156.21 80.01 0)
			(effects
				(font
					(size 1.27 1.27)
				)
				(hide yes)
			)
		)
		(property "Description" "test point"
			(at 156.21 74.93 0)
			(effects
				(font
					(size 1.27 1.27)
				)
				(hide yes)
			)
		)
		(pin "1"
			(uuid "b49ff2ef-76bf-4404-98ad-02bf8c6c91a3")
		)
		(instances
			(project "sculpt-zmk"
				(path "/a5934cc4-26db-4c86-8620-c5cd32ec0c39/5ad59400-2dcb-4023-99cc-96de7b2afa6b"
					(reference "TP26")
					(unit 1)
				)
			)
		)
	)
	(symbol
		(lib_id "Connector:TestPoint")
		(at 156.21 80.01 90)
		(mirror x)
		(unit 1)
		(exclude_from_sim no)
		(in_bom yes)
		(on_board yes)
		(dnp no)
		(uuid "f77b4954-ca2d-423f-b6f0-3579426189a0")
		(property "Reference" "TP24"
			(at 148.844 80.01 90)
			(effects
				(font
					(size 1.27 1.27)
				)
			)
		)
		(property "Value" "TestPoint"
			(at 142.24 80.01 90)
			(effects
				(font
					(size 1.27 1.27)
				)
			)
		)
		(property "Footprint" "TestPoint:TestPoint_Pad_D1.0mm"
			(at 156.21 85.09 0)
			(effects
				(font
					(size 1.27 1.27)
				)
				(hide yes)
			)
		)
		(property "Datasheet" "~"
			(at 156.21 85.09 0)
			(effects
				(font
					(size 1.27 1.27)
				)
				(hide yes)
			)
		)
		(property "Description" "test point"
			(at 156.21 80.01 0)
			(effects
				(font
					(size 1.27 1.27)
				)
				(hide yes)
			)
		)
		(pin "1"
			(uuid "00124dd7-a9b8-47f2-b25e-ecaaebe27386")
		)
		(instances
			(project "sculpt-zmk"
				(path "/a5934cc4-26db-4c86-8620-c5cd32ec0c39/5ad59400-2dcb-4023-99cc-96de7b2afa6b"
					(reference "TP24")
					(unit 1)
				)
			)
		)
	)
)
