(kicad_sch
	(version 20231120)
	(generator "eeschema")
	(generator_version "8.0")
	(uuid "a5934cc4-26db-4c86-8620-c5cd32ec0c39")
	(paper "A4")
	(title_block
		(title "ZMK Sculpt")
		(date "2025-01-03")
		(rev "R2")
		(company "Petr Hodina")
	)
	(lib_symbols
		(symbol "Mechanical:Fiducial"
			(exclude_from_sim yes)
			(in_bom no)
			(on_board yes)
			(property "Reference" "FID"
				(at 0 5.08 0)
				(effects
					(font
						(size 1.27 1.27)
					)
				)
			)
			(property "Value" "Fiducial"
				(at 0 3.175 0)
				(effects
					(font
						(size 1.27 1.27)
					)
				)
			)
			(property "Footprint" ""
				(at 0 0 0)
				(effects
					(font
						(size 1.27 1.27)
					)
					(hide yes)
				)
			)
			(property "Datasheet" "~"
				(at 0 0 0)
				(effects
					(font
						(size 1.27 1.27)
					)
					(hide yes)
				)
			)
			(property "Description" "Fiducial Marker"
				(at 0 0 0)
				(effects
					(font
						(size 1.27 1.27)
					)
					(hide yes)
				)
			)
			(property "ki_keywords" "fiducial marker"
				(at 0 0 0)
				(effects
					(font
						(size 1.27 1.27)
					)
					(hide yes)
				)
			)
			(property "ki_fp_filters" "Fiducial*"
				(at 0 0 0)
				(effects
					(font
						(size 1.27 1.27)
					)
					(hide yes)
				)
			)
			(symbol "Fiducial_0_1"
				(circle
					(center 0 0)
					(radius 1.27)
					(stroke
						(width 0.508)
						(type default)
					)
					(fill
						(type background)
					)
				)
			)
		)
		(symbol "Mechanical:MountingHole"
			(pin_names
				(offset 1.016)
			)
			(exclude_from_sim yes)
			(in_bom no)
			(on_board yes)
			(property "Reference" "H"
				(at 0 5.08 0)
				(effects
					(font
						(size 1.27 1.27)
					)
				)
			)
			(property "Value" "MountingHole"
				(at 0 3.175 0)
				(effects
					(font
						(size 1.27 1.27)
					)
				)
			)
			(property "Footprint" ""
				(at 0 0 0)
				(effects
					(font
						(size 1.27 1.27)
					)
					(hide yes)
				)
			)
			(property "Datasheet" "~"
				(at 0 0 0)
				(effects
					(font
						(size 1.27 1.27)
					)
					(hide yes)
				)
			)
			(property "Description" "Mounting Hole without connection"
				(at 0 0 0)
				(effects
					(font
						(size 1.27 1.27)
					)
					(hide yes)
				)
			)
			(property "ki_keywords" "mounting hole"
				(at 0 0 0)
				(effects
					(font
						(size 1.27 1.27)
					)
					(hide yes)
				)
			)
			(property "ki_fp_filters" "MountingHole*"
				(at 0 0 0)
				(effects
					(font
						(size 1.27 1.27)
					)
					(hide yes)
				)
			)
			(symbol "MountingHole_0_1"
				(circle
					(center 0 0)
					(radius 1.27)
					(stroke
						(width 1.27)
						(type default)
					)
					(fill
						(type none)
					)
				)
			)
		)
	)
	(wire
		(pts
			(xy 176.53 64.77) (xy 209.55 64.77)
		)
		(stroke
			(width 0)
			(type default)
		)
		(uuid "0541b3a6-f6b7-4728-9cf0-59b4a96141a0")
	)
	(bus
		(pts
			(xy 176.53 62.23) (xy 209.55 62.23)
		)
		(stroke
			(width 0)
			(type default)
		)
		(uuid "11661a35-a9f0-48f6-a8b5-f9dde4648b9d")
	)
	(wire
		(pts
			(xy 92.71 83.82) (xy 128.27 83.82)
		)
		(stroke
			(width 0)
			(type default)
		)
		(uuid "41c20c72-36f8-4479-a2ab-b8bf3e2cf364")
	)
	(wire
		(pts
			(xy 92.71 96.52) (xy 128.27 96.52)
		)
		(stroke
			(width 0)
			(type default)
		)
		(uuid "6437dd1c-0ca7-4ece-af12-3014278b8cca")
	)
	(wire
		(pts
			(xy 176.53 69.85) (xy 209.55 69.85)
		)
		(stroke
			(width 0)
			(type default)
		)
		(uuid "7a516de6-205d-4143-a8bb-712a182e2bf5")
	)
	(wire
		(pts
			(xy 92.71 72.39) (xy 128.27 72.39)
		)
		(stroke
			(width 0)
			(type default)
		)
		(uuid "7e0c7ae1-03ee-4f47-b139-33ce842c4bc5")
	)
	(bus
		(pts
			(xy 176.53 59.69) (xy 209.55 59.69)
		)
		(stroke
			(width 0)
			(type default)
		)
		(uuid "bdfe9cf7-2087-4bd8-aa26-a521c8591a35")
	)
	(wire
		(pts
			(xy 92.71 105.41) (xy 128.27 105.41)
		)
		(stroke
			(width 0)
			(type default)
		)
		(uuid "c3cf6d89-0d51-410a-8bf1-a08020ac2a6e")
	)
	(wire
		(pts
			(xy 92.71 88.9) (xy 128.27 88.9)
		)
		(stroke
			(width 0)
			(type default)
		)
		(uuid "c634f15e-08c3-44dc-b8b0-96ca5d66e86a")
	)
	(wire
		(pts
			(xy 92.71 74.93) (xy 128.27 74.93)
		)
		(stroke
			(width 0)
			(type default)
		)
		(uuid "cd316624-0e5e-445d-99ec-68b6e8c40ef8")
	)
	(wire
		(pts
			(xy 176.53 72.39) (xy 209.55 72.39)
		)
		(stroke
			(width 0)
			(type default)
		)
		(uuid "e7f415e4-f64b-4733-b27c-3ee7604ace57")
	)
	(wire
		(pts
			(xy 92.71 93.98) (xy 128.27 93.98)
		)
		(stroke
			(width 0)
			(type default)
		)
		(uuid "ed424dca-1b2a-40ae-b8ed-c59877fc3867")
	)
	(wire
		(pts
			(xy 92.71 81.28) (xy 128.27 81.28)
		)
		(stroke
			(width 0)
			(type default)
		)
		(uuid "f98c800d-3454-4b60-8dfd-bb5a4b825558")
	)
	(wire
		(pts
			(xy 92.71 102.87) (xy 128.27 102.87)
		)
		(stroke
			(width 0)
			(type default)
		)
		(uuid "ff41548a-6a24-4e1b-848b-1ccc74f5643d")
	)
	(text "NOTE: Screws are mounted to plastic back"
		(exclude_from_sim no)
		(at 107.188 163.322 0)
		(effects
			(font
				(size 1.27 1.27)
			)
		)
		(uuid "e15934f4-3a56-4a71-b991-1f38f7e1af80")
	)
	(symbol
		(lib_id "Mechanical:Fiducial")
		(at 53.34 179.07 0)
		(unit 1)
		(exclude_from_sim yes)
		(in_bom no)
		(on_board yes)
		(dnp no)
		(fields_autoplaced yes)
		(uuid "112b9c4b-6622-45fa-b144-97b3172ae5db")
		(property "Reference" "FID4"
			(at 55.88 177.7999 0)
			(effects
				(font
					(size 1.27 1.27)
				)
				(justify left)
			)
		)
		(property "Value" "Fiducial"
			(at 55.88 180.3399 0)
			(effects
				(font
					(size 1.27 1.27)
				)
				(justify left)
			)
		)
		(property "Footprint" "Fiducial:Fiducial_0.5mm_Mask1.5mm"
			(at 53.34 179.07 0)
			(effects
				(font
					(size 1.27 1.27)
				)
				(hide yes)
			)
		)
		(property "Datasheet" "~"
			(at 53.34 179.07 0)
			(effects
				(font
					(size 1.27 1.27)
				)
				(hide yes)
			)
		)
		(property "Description" "Fiducial Marker"
			(at 53.34 179.07 0)
			(effects
				(font
					(size 1.27 1.27)
				)
				(hide yes)
			)
		)
		(instances
			(project "sculpt-zmk"
				(path "/a5934cc4-26db-4c86-8620-c5cd32ec0c39"
					(reference "FID4")
					(unit 1)
				)
			)
		)
	)
	(symbol
		(lib_id "Mechanical:MountingHole")
		(at 88.9 167.64 0)
		(unit 1)
		(exclude_from_sim no)
		(in_bom yes)
		(on_board yes)
		(dnp no)
		(uuid "14e8d322-39d9-4188-a6eb-83576b04f4f9")
		(property "Reference" "H1"
			(at 91.44 166.4716 0)
			(effects
				(font
					(size 1.27 1.27)
				)
				(justify left)
			)
		)
		(property "Value" "MountingHoleNorth"
			(at 91.44 168.91 0)
			(effects
				(font
					(size 1.27 1.27)
				)
				(justify left)
			)
		)
		(property "Footprint" "MountingHole:MountingHole_2.2mm_M2_DIN965_Pad_TopBottom"
			(at 88.9 167.64 0)
			(effects
				(font
					(size 1.27 1.27)
				)
				(hide yes)
			)
		)
		(property "Datasheet" "~"
			(at 88.9 167.64 0)
			(effects
				(font
					(size 1.27 1.27)
				)
				(hide yes)
			)
		)
		(property "Description" ""
			(at 88.9 167.64 0)
			(effects
				(font
					(size 1.27 1.27)
				)
				(hide yes)
			)
		)
		(instances
			(project "sculpt-zmk"
				(path "/a5934cc4-26db-4c86-8620-c5cd32ec0c39"
					(reference "H1")
					(unit 1)
				)
			)
		)
	)
	(symbol
		(lib_id "Mechanical:MountingHole")
		(at 88.9 172.72 0)
		(unit 1)
		(exclude_from_sim no)
		(in_bom yes)
		(on_board yes)
		(dnp no)
		(uuid "83f6ba65-8ba2-4ae2-95c7-d1615e4e29ea")
		(property "Reference" "H2"
			(at 91.44 171.5516 0)
			(effects
				(font
					(size 1.27 1.27)
				)
				(justify left)
			)
		)
		(property "Value" "MountingHoleSouth"
			(at 91.44 173.863 0)
			(effects
				(font
					(size 1.27 1.27)
				)
				(justify left)
			)
		)
		(property "Footprint" "MountingHole:MountingHole_2.2mm_M2_DIN965_Pad_TopBottom"
			(at 88.9 172.72 0)
			(effects
				(font
					(size 1.27 1.27)
				)
				(hide yes)
			)
		)
		(property "Datasheet" "~"
			(at 88.9 172.72 0)
			(effects
				(font
					(size 1.27 1.27)
				)
				(hide yes)
			)
		)
		(property "Description" ""
			(at 88.9 172.72 0)
			(effects
				(font
					(size 1.27 1.27)
				)
				(hide yes)
			)
		)
		(instances
			(project "sculpt-zmk"
				(path "/a5934cc4-26db-4c86-8620-c5cd32ec0c39"
					(reference "H2")
					(unit 1)
				)
			)
		)
	)
	(symbol
		(lib_id "Mechanical:Fiducial")
		(at 53.34 163.83 0)
		(unit 1)
		(exclude_from_sim yes)
		(in_bom no)
		(on_board yes)
		(dnp no)
		(fields_autoplaced yes)
		(uuid "997b8265-3d57-4fcc-9932-006eaa34e35f")
		(property "Reference" "FID1"
			(at 55.88 162.5599 0)
			(effects
				(font
					(size 1.27 1.27)
				)
				(justify left)
			)
		)
		(property "Value" "Fiducial"
			(at 55.88 165.0999 0)
			(effects
				(font
					(size 1.27 1.27)
				)
				(justify left)
			)
		)
		(property "Footprint" "Fiducial:Fiducial_0.5mm_Mask1.5mm"
			(at 53.34 163.83 0)
			(effects
				(font
					(size 1.27 1.27)
				)
				(hide yes)
			)
		)
		(property "Datasheet" "~"
			(at 53.34 163.83 0)
			(effects
				(font
					(size 1.27 1.27)
				)
				(hide yes)
			)
		)
		(property "Description" "Fiducial Marker"
			(at 53.34 163.83 0)
			(effects
				(font
					(size 1.27 1.27)
				)
				(hide yes)
			)
		)
		(instances
			(project ""
				(path "/a5934cc4-26db-4c86-8620-c5cd32ec0c39"
					(reference "FID1")
					(unit 1)
				)
			)
		)
	)
	(symbol
		(lib_id "Mechanical:Fiducial")
		(at 53.34 168.91 0)
		(unit 1)
		(exclude_from_sim yes)
		(in_bom no)
		(on_board yes)
		(dnp no)
		(fields_autoplaced yes)
		(uuid "a3fe1ab3-c464-413c-84d3-faffcd590e85")
		(property "Reference" "FID2"
			(at 55.88 167.6399 0)
			(effects
				(font
					(size 1.27 1.27)
				)
				(justify left)
			)
		)
		(property "Value" "Fiducial"
			(at 55.88 170.1799 0)
			(effects
				(font
					(size 1.27 1.27)
				)
				(justify left)
			)
		)
		(property "Footprint" "Fiducial:Fiducial_0.5mm_Mask1.5mm"
			(at 53.34 168.91 0)
			(effects
				(font
					(size 1.27 1.27)
				)
				(hide yes)
			)
		)
		(property "Datasheet" "~"
			(at 53.34 168.91 0)
			(effects
				(font
					(size 1.27 1.27)
				)
				(hide yes)
			)
		)
		(property "Description" "Fiducial Marker"
			(at 53.34 168.91 0)
			(effects
				(font
					(size 1.27 1.27)
				)
				(hide yes)
			)
		)
		(instances
			(project "sculpt-zmk"
				(path "/a5934cc4-26db-4c86-8620-c5cd32ec0c39"
					(reference "FID2")
					(unit 1)
				)
			)
		)
	)
	(symbol
		(lib_id "Mechanical:Fiducial")
		(at 53.34 173.99 0)
		(unit 1)
		(exclude_from_sim yes)
		(in_bom no)
		(on_board yes)
		(dnp no)
		(fields_autoplaced yes)
		(uuid "b0216179-168d-41d5-be39-d8dc2e39bbd2")
		(property "Reference" "FID3"
			(at 55.88 172.7199 0)
			(effects
				(font
					(size 1.27 1.27)
				)
				(justify left)
			)
		)
		(property "Value" "Fiducial"
			(at 55.88 175.2599 0)
			(effects
				(font
					(size 1.27 1.27)
				)
				(justify left)
			)
		)
		(property "Footprint" "Fiducial:Fiducial_0.5mm_Mask1.5mm"
			(at 53.34 173.99 0)
			(effects
				(font
					(size 1.27 1.27)
				)
				(hide yes)
			)
		)
		(property "Datasheet" "~"
			(at 53.34 173.99 0)
			(effects
				(font
					(size 1.27 1.27)
				)
				(hide yes)
			)
		)
		(property "Description" "Fiducial Marker"
			(at 53.34 173.99 0)
			(effects
				(font
					(size 1.27 1.27)
				)
				(hide yes)
			)
		)
		(instances
			(project "sculpt-zmk"
				(path "/a5934cc4-26db-4c86-8620-c5cd32ec0c39"
					(reference "FID3")
					(unit 1)
				)
			)
		)
	)
	(symbol
		(lib_id "Mechanical:MountingHole")
		(at 88.9 177.8 0)
		(unit 1)
		(exclude_from_sim no)
		(in_bom yes)
		(on_board yes)
		(dnp no)
		(uuid "fd5732d6-c77c-4a0b-8ff6-0c1df54b095a")
		(property "Reference" "H3"
			(at 91.44 176.6316 0)
			(effects
				(font
					(size 1.27 1.27)
				)
				(justify left)
			)
		)
		(property "Value" "AlignmentHole"
			(at 91.44 178.943 0)
			(effects
				(font
					(size 1.27 1.27)
				)
				(justify left)
			)
		)
		(property "Footprint" "MountingHole:MountingHole_2.7mm"
			(at 88.9 177.8 0)
			(effects
				(font
					(size 1.27 1.27)
				)
				(hide yes)
			)
		)
		(property "Datasheet" "~"
			(at 88.9 177.8 0)
			(effects
				(font
					(size 1.27 1.27)
				)
				(hide yes)
			)
		)
		(property "Description" ""
			(at 88.9 177.8 0)
			(effects
				(font
					(size 1.27 1.27)
				)
				(hide yes)
			)
		)
		(instances
			(project "sculpt-zmk"
				(path "/a5934cc4-26db-4c86-8620-c5cd32ec0c39"
					(reference "H3")
					(unit 1)
				)
			)
		)
	)
	(sheet
		(at 128.27 44.45)
		(size 48.26 86.36)
		(fields_autoplaced yes)
		(stroke
			(width 0.1524)
			(type solid)
		)
		(fill
			(color 255 255 194 1.0000)
		)
		(uuid "4f934791-ee6e-4579-9df0-6e0773331bd6")
		(property "Sheetname" "Controller"
			(at 128.27 43.7384 0)
			(effects
				(font
					(size 1.27 1.27)
				)
				(justify left bottom)
			)
		)
		(property "Sheetfile" "controller.kicad_sch"
			(at 128.27 131.3946 0)
			(effects
				(font
					(size 1.27 1.27)
				)
				(justify left top)
			)
		)
		(pin "USB_P" input
			(at 128.27 72.39 180)
			(effects
				(font
					(size 1.27 1.27)
				)
				(justify left)
			)
			(uuid "224bcb30-6273-4683-9d90-b31778cc8421")
		)
		(pin "USB_N" input
			(at 128.27 74.93 180)
			(effects
				(font
					(size 1.27 1.27)
				)
				(justify left)
			)
			(uuid "7358a2c3-640b-46c8-ad24-b2bffd64746b")
		)
		(pin "SCL" input
			(at 128.27 93.98 180)
			(effects
				(font
					(size 1.27 1.27)
				)
				(justify left)
			)
			(uuid "9d62dcf2-cb73-4209-973c-125f7394454f")
		)
		(pin "SDA" input
			(at 128.27 96.52 180)
			(effects
				(font
					(size 1.27 1.27)
				)
				(justify left)
			)
			(uuid "6365f87a-ac1a-4980-996a-98dc968effd5")
		)
		(pin "RXD" input
			(at 128.27 83.82 180)
			(effects
				(font
					(size 1.27 1.27)
				)
				(justify left)
			)
			(uuid "7965a449-ea59-472b-8949-29fcbb2c3690")
		)
		(pin "TXD" input
			(at 128.27 81.28 180)
			(effects
				(font
					(size 1.27 1.27)
				)
				(justify left)
			)
			(uuid "4dbceb31-03f3-4d9c-b26f-3e0b3faf154f")
		)
		(pin "FN_SWITCH" input
			(at 176.53 64.77 0)
			(effects
				(font
					(size 1.27 1.27)
				)
				(justify right)
			)
			(uuid "4d00b2ab-60d7-4ffb-a7db-434e2f3692f6")
		)
		(pin "COL[1..18]" input
			(at 176.53 62.23 0)
			(effects
				(font
					(size 1.27 1.27)
				)
				(justify right)
			)
			(uuid "2c42c19d-0a94-4d2e-b442-8bac6e204a4c")
		)
		(pin "ROW[1..8]" input
			(at 176.53 59.69 0)
			(effects
				(font
					(size 1.27 1.27)
				)
				(justify right)
			)
			(uuid "888825d3-7231-4a9b-9b8e-1bc224bc21bb")
		)
		(pin "~{ALRT}" input
			(at 128.27 88.9 180)
			(effects
				(font
					(size 1.27 1.27)
				)
				(justify left)
			)
			(uuid "9f675c2d-aee0-468f-b593-d0bff4a13c60")
		)
		(pin "BAT_SENSE_ENABLE" input
			(at 128.27 102.87 180)
			(effects
				(font
					(size 1.27 1.27)
				)
				(justify left)
			)
			(uuid "1c5e40e8-6994-4cba-a839-a5f2c783fb53")
		)
		(pin "BAT_SENSE" input
			(at 128.27 105.41 180)
			(effects
				(font
					(size 1.27 1.27)
				)
				(justify left)
			)
			(uuid "3dd1d3d4-0403-48b5-8245-9685aea48adf")
		)
		(pin "LED_Q1" input
			(at 176.53 72.39 0)
			(effects
				(font
					(size 1.27 1.27)
				)
				(justify right)
			)
			(uuid "4503e9d0-b40d-4e75-b20e-7a6b9a16ccd7")
		)
		(pin "LED_Q2" input
			(at 176.53 69.85 0)
			(effects
				(font
					(size 1.27 1.27)
				)
				(justify right)
			)
			(uuid "70e356cb-a632-4919-945a-b983a335de15")
		)
		(instances
			(project "sculpt-zmk"
				(path "/a5934cc4-26db-4c86-8620-c5cd32ec0c39"
					(page "2")
				)
			)
		)
	)
	(sheet
		(at 209.55 44.45)
		(size 48.26 86.36)
		(fields_autoplaced yes)
		(stroke
			(width 0.1524)
			(type solid)
		)
		(fill
			(color 255 255 194 1.0000)
		)
		(uuid "5ad59400-2dcb-4023-99cc-96de7b2afa6b")
		(property "Sheetname" "Matrix"
			(at 209.55 43.7384 0)
			(effects
				(font
					(size 1.27 1.27)
				)
				(justify left bottom)
			)
		)
		(property "Sheetfile" "matrix.kicad_sch"
			(at 209.55 131.3946 0)
			(effects
				(font
					(size 1.27 1.27)
				)
				(justify left top)
			)
		)
		(pin "ROW[1..8]" input
			(at 209.55 59.69 180)
			(effects
				(font
					(size 1.27 1.27)
				)
				(justify left)
			)
			(uuid "23b96863-c7e7-4683-91dd-6f9a0a6d7358")
		)
		(pin "COL[1..18]" input
			(at 209.55 62.23 180)
			(effects
				(font
					(size 1.27 1.27)
				)
				(justify left)
			)
			(uuid "f1f8bd7a-4b7b-42ed-adfe-4f201a63c43b")
		)
		(pin "FN_SWITCH" input
			(at 209.55 64.77 180)
			(effects
				(font
					(size 1.27 1.27)
				)
				(justify left)
			)
			(uuid "bec375ce-d103-422c-8b5c-d81827bfee94")
		)
		(pin "LED_Q2" input
			(at 209.55 69.85 180)
			(effects
				(font
					(size 1.27 1.27)
				)
				(justify left)
			)
			(uuid "65c745b1-a869-4bf0-a369-f120aad52bf0")
		)
		(pin "LED_Q1" input
			(at 209.55 72.39 180)
			(effects
				(font
					(size 1.27 1.27)
				)
				(justify left)
			)
			(uuid "1e7a6fc2-b0a0-4454-bf92-7baf8c12e424")
		)
		(instances
			(project "sculpt-zmk"
				(path "/a5934cc4-26db-4c86-8620-c5cd32ec0c39"
					(page "4")
				)
			)
		)
	)
	(sheet
		(at 41.91 44.45)
		(size 50.8 86.36)
		(fields_autoplaced yes)
		(stroke
			(width 0.1524)
			(type solid)
		)
		(fill
			(color 255 255 194 1.0000)
		)
		(uuid "a3bc76cb-875b-4cb7-b4d6-222bacce59e5")
		(property "Sheetname" "Power"
			(at 41.91 43.7384 0)
			(effects
				(font
					(size 1.27 1.27)
				)
				(justify left bottom)
			)
		)
		(property "Sheetfile" "power.kicad_sch"
			(at 41.91 131.3946 0)
			(effects
				(font
					(size 1.27 1.27)
				)
				(justify left top)
			)
		)
		(pin "SYSOFF" input
			(at 92.71 63.5 0)
			(effects
				(font
					(size 1.27 1.27)
				)
				(justify right)
			)
			(uuid "73b4f639-4bb6-4422-9331-a82df63c40ee")
		)
		(pin "SBU1" input
			(at 92.71 81.28 0)
			(effects
				(font
					(size 1.27 1.27)
				)
				(justify right)
			)
			(uuid "0f26b7bb-0115-42b1-b681-3debb5d0b76a")
		)
		(pin "SBU2" input
			(at 92.71 83.82 0)
			(effects
				(font
					(size 1.27 1.27)
				)
				(justify right)
			)
			(uuid "a4b3360d-5252-4a9c-8091-512a7f077fb9")
		)
		(pin "~{ALRT}" input
			(at 92.71 88.9 0)
			(effects
				(font
					(size 1.27 1.27)
				)
				(justify right)
			)
			(uuid "ffc60df2-93ef-4335-be36-2c5d409b427c")
		)
		(pin "SCL" input
			(at 92.71 93.98 0)
			(effects
				(font
					(size 1.27 1.27)
				)
				(justify right)
			)
			(uuid "e8831cea-0abe-4a08-9589-199c3d3ccafc")
		)
		(pin "SDA" input
			(at 92.71 96.52 0)
			(effects
				(font
					(size 1.27 1.27)
				)
				(justify right)
			)
			(uuid "093db0a7-cb24-485b-8132-13f7104b818f")
		)
		(pin "BAT_SENSE_ENABLE" input
			(at 92.71 102.87 0)
			(effects
				(font
					(size 1.27 1.27)
				)
				(justify right)
			)
			(uuid "9d2201d8-255e-4469-8d0d-e4644113fd78")
		)
		(pin "BAT_SENSE" input
			(at 92.71 105.41 0)
			(effects
				(font
					(size 1.27 1.27)
				)
				(justify right)
			)
			(uuid "ecd44ab4-4bc2-498b-aca1-457070203b5d")
		)
		(pin "BOOT" input
			(at 92.71 66.04 0)
			(effects
				(font
					(size 1.27 1.27)
				)
				(justify right)
			)
			(uuid "72254b64-7944-4db8-a543-c04873258001")
		)
		(pin "USB_D_P" input
			(at 92.71 72.39 0)
			(effects
				(font
					(size 1.27 1.27)
				)
				(justify right)
			)
			(uuid "06cc40d5-9979-4355-8d5f-a9938bc10f19")
		)
		(pin "USB_D_N" input
			(at 92.71 74.93 0)
			(effects
				(font
					(size 1.27 1.27)
				)
				(justify right)
			)
			(uuid "945bf19d-6981-457c-837e-87f34df4ecc1")
		)
		(instances
			(project "sculpt-zmk"
				(path "/a5934cc4-26db-4c86-8620-c5cd32ec0c39"
					(page "3")
				)
			)
		)
	)
	(sheet_instances
		(path "/"
			(page "1")
		)
	)
)
